{
	"headline": "<mark>EYLEA<sup>&reg;</sup> 2 mg</mark> PROVIDES STRONG, INCREASING VISION GAINS OVER<br> THE COURSE OF 5 INITIAL MONTHLY DOSES<sup data-reference-id='korobelnik'></sup>",
	"graph": {
		"caption": "Mean change in BCVA though Week 52<sup data-reference-id='korobelnik'></sup>"
	}
}