{
	"headline": "Baseline characteristics<sup data-reference-id='vividEast'></sup>",
	"table": {
		"thead": [
			{
				"th_01_colspanned_1": "",
				"th02_class-vivid-east_colspanned_3": ""
			},
			{
				"th_01_colspanned_1": "",
				"th02_class-blue": "EYLEA<sup>&reg;</sup> 2q8",
				"th03_class-white": "EYLEA<sup>&reg;</sup> 2q4",
				"th04_class-light-gray": "Laser"
			}
		],
		"tbody": [
			{
				"th01": "n",
				"td02": "127",
				"td03": "127",
				"td04": "124"
			},
			{
				"th01": "Age, years (SD)",
				"td02": "57.6 (10.1)",
				"td03": "59.3 (10.3)",
				"td04": "58.8 (10.5)"
			},
			{
				"th01": "Female, n (%)",
				"td02": "60 (47.2)",
				"td03": "68 (53.5)",
				"td04": "60 (48.4)"
			},
			{
				"th01": "Race, n (%)",
				"td02": "",
				"td03": "",
				"td04": ""
			},
			{
				"th01": "White",
				"td05": "10 (7.9)",
				"td03": "10 (7.9)",
				"td04": "9 (7.3)"
			},
			{
				"th01": "Black",
				"td02": "0",
				"td03": "0",
				"td04": "0"
			},
			{
				"th01": "Asian",
				"td02": "117 (92.1)",
				"td03": "117 (92.1)",
				"td04": "115 (92.7)"
			},
			{
				"th01": "Other",
				"td02": "0",
				"td03": "0",
				"td04": "0"
			},
			{
				"th01": "Mean HbA<sub>1c</sub>, % (SD)",
				"td02": "7.4 (1.36)",
				"td03": "7.6 (1.41)",
				"td04": "7.3 (1.36)"
			},
			{
				"th01": "Patients with HbA<sub>1c</sub> &gt;8%, n (%)",
				"td02": "34 (26.8)",
				"td03": "41 (32.3%)",
				"td04": "33 (26.6)"
			},
			{
				"th01": "Duration of diabetes, years (SD)",
				"td02": "11.5 (7.9)",
				"td03": "12.9 (7.7)",
				"td04": "12.6 (7.8)"
			}
		]
	}
}