{
	"lead_paragraph": "BEYOND IMPROVING VISUAL ACUITY,<br>WHICH OF THE FOLLOWING IS YOUR<br><span>MAIN CONCERN WHEN TREATING DME</span>?",
	"slider_value": [
		"Reduce <br>edema/CRT",
		"Reduce treatment <br> burden",
		"Ensure patient<br> compliance",
		"Act on underlying<br> disease"
	]
}