{
	"headline": "BASELINE DISEASE CHARACTERISTICS<sup data-reference-id='korobelnik'></sup>",
	"table": {
		"thead": [
			{
				"th01": "",
				"th02_class-vivid_colspanned_3": "",
				"th05_class-vista_colspanned_3": ""
			},
			{
				"th01": "",
				"th02_class-blue": "EYLEA<sup>&reg;</sup><br> 2q8",
				"th03_class-white": "Aflibercept<sup>&reg;</sup> 2q4",
				"th04_class-light-gray": "Laser",
				"th05_class-blue": "EYLEA<sup>&reg;</sup><br> 2q8",
				"th06_class-white": "Aflibercept<sup>&reg;</sup> 2q4",
				"th07_class-light-gray": "Laser"
			}
		],
		"tbody": [

			{
				"th01": "n",
				"td02": "135",
				"td03": "136",
				"td04": "132",
				"td05": "151",
				"td06": "154",
				"td07": "v"
			},
			{
				"th01": "BCVA, ETDRS letters (SD)",
				"td02": "58.8 (11.2)",
				"td03": "60.8 (10.7)",
				"td04": "60.8 (10.6)",
				"td05": "59.4 (10.9)",
				"td06": "58.9 (10.8)",
				"td07": "59.7 (10.9)"
			},
			{
				"th01": "CRT, &micro;m (SD)",
				"td02": "518 (147)",
				"td03": "502 (144)",
				"td04": "540 (152)",
				"td05": "479 (154)",
				"td06": "485 (157)",
				"td07": "483 (153)"
			},
			{
				"th01": "NEI-VFQ score",
				"td02": "",
				"td03": "",
				"td04": "",
				"td05": "",
				"td06": "",
				"td07": ""
			},
			{
				"th01": "Total, points (SD)",
				"td02": "71.2 (17.8)",
				"td03": "77.3 (16.2)",
				"td04": "77.5 (15.2)",
				"td05": "70.5 (17.1)",
				"td06": "69.5 (19.9)",
				"td07": "68.7 (18.1)"
			},
			{
				"th01": "Distance, points (SD)",
				"td02": "67.8 (22.9)",
				"td03": "76.7 (21.8)",
				"td04": "77.0 (20.9)",
				"td05": "66.8 (22.5)",
				"td06": "65.3 (23.5)",
				"td07": "63.7 (23.3)"
			},
			{
				"th01": "Near, points (SD)",
				"td02": "60.8 (23.5)",
				"td03": "68.0 (22.9)",
				"td04": "67.4 (22.2)",
				"td05": "58.1 (22.9)",
				"td06": "60.1 (23.9)",
				"td07": "56.6 (23.1)"
			},
			{
				"th01": "Prior anti-VEGF therapy, n (%)",
				"td02": "15 (11.1)",
				"td03": "8 (5.9)",
				"td04": "13 (9.8)",
				"td05": "68 (45.0)",
				"td06": "66 (42.9)",
				"td07": "63 (40.9)"
			}
		]
	}
}