{
	"headline": "Baseline disease characteristics<sup data-reference-id='diabetic'></sup><sup>,</sup><sup data-notes='dose_ranibizumab'></sup>",
	"table": {
		"thead": [
			{
				"th_01_colspanned_1": "",
				"th02_class-yellow_colspanned_3": "Protocol T"
			},
			{
				"th_01_colspanned_1": "",
				"th02_class-blue": "EYLEA<sup>&reg;</sup>",
				"th03_class-light-gray": "Bevacizumab",
				"th04_class-gray": "Ranibizumab"
			}
		],
		"tbody": [
			{
				"th01": "n",
				"td02": "224",
				"td03": "218",
				"td04": "218"
			},
			{
				"th01": "BCVA, ETDRS letters, median (25<sup>th</sup>, 75<sup>th</sup> percentile)",
				"td02": "69 (74, 59)",
				"td03": "69 (72, 60)",
				"td04": "68 (73, 58)"
			},
			{
				"th01": "CRT, µm, median (25<sup>th</sup>, 75<sup>th</sup> percentile)",
				"td02": "387 (310, 483)",
				"td03": "376 (305, 477)",
				"td04": "390 (310, 493)"
			},
			{
				"th01": "Prior anti-VEGF therapy, n (%)",
				"td02": "24 (11)",
				"td03": "31 (14)",
				"td04": "29 (13)"
			}
		]
	}
}