{
	"headline": "START STRONG WITH EYLEA<sup>&reg;</sup>",
	"lead_paragraph": "FROM THE 1<sup>st</sup> THROUGH THE 5<sup>th</sup> DOSE<sup data-reference-id='korobelnik'></sup>",
	"graph_captions": {
		"state1": "Mean change in BCVA through Week 20<sup data-reference-id='korobelnik'></sup><span class='pointer-label'></span>",
		"state2": "Mean change in BCVA through Week 52<sup data-reference-id='korobelnik'></sup><span class='pointer-label'></span>",
		"state3": "Mean change in BCVA through Week 52<sup data-reference-id='korobelnik,vivid'></sup><span class='pointer-label'></span>"
	},
	"lead_paragraphs": {
		"main":"FROM THE 1<sup>st</sup> THROUGH THE 5<sup>th</sup> DOSE<sup data-reference-id='korobelnik'></sup>",
		"second": "FROM THE 1<sup>st</sup> THROUGH THE 5<sup>th</sup> DOSE<sup data-reference-id='korobelnik,vivid'></sup>"
	},
	"headline3": {
		"main": "<strong>EYLEA<sup>&reg;</sup> 2 mg</strong> provides strong, increasing vision gains over the course of 5 initial monthly doses<sup data-reference-id='korobelnik'></sup>",
		"second": "After 5 initial monthly doses of <strong>EYLEA<sup>&reg;</sup> 2 mg</strong>, on average, patients had achieved 87% of mean vision gained at Year 1<sup data-reference-id='korobelnik,vivid'></sup>"
	},
	"graph": {
		"caption": "Mean change in BCVA through Week 20<sup data-reference-id='korobelnik'></sup>",
		"v_caption": "Mean change in BCVA<br> ETDRS letters",
		"v_scale": [
			"0",
			"2",
			"4",
			"6",
			"8",
			"10",
			"12",
			"14"
		],
		"h_caption": "Week",
		"h_scale": [
			"0",
			"4",
			"8",
			"12",
			"16",
			"20",
			"52"
		],
		"lines": [
			{
				"value": "+9.3",
				"additional": "FIFTH DOSE<br> EFFICACY"
			},
			{
				"value": "+1.8"
			},
			{
				"value": "+10.7"
			},
			{
				"value": "+1.2"
			}
		],
		"graph_blocks": [
			"5 initial monthly doses",
			"2q8 extension"
		],
		"point_values": [
			"50<span>%</span>",
			"64<span>%</span>",
			"74<span>%</span>",
			"78<span>%</span>",
			{
				"value": "87<span>%</span>",
				"efficacy_value": "+9.3",
				"additional": "FIFTH DOSE EFFICACY"
			}
		],
		"point_description": {
			"efficacy_value": "",
			"additional": ""
		},
		"graph_block_text": "<span>ON AVERAGE, IMPROVEMENT</span><br><span>OF 9.3 LETTERS AFTER 5<sup>th</sup> DOSE –</span><br><span>87% OF 10.7 MEAN LETTERS</span><br><span>GAINED AT YEAR 1<sup data-reference-id='korobelnik,vivid'></sup></span>",
		"legend": [
			"<strong>EYLEA<sup>&reg;</sup> 2 mg</strong> administered every month (4 weeks) for the first 5 months, followed by once every 2 months (8 weeks); <strong>n=135</strong>.<sup data-reference-id='korobelnik'></sup>",
			"<strong>Laser</strong> photocoagulation administered as needed, no more often than every 12 weeks; <strong>n=132</strong>.<sup data-reference-id='korobelnik'></sup>"
		]
	},
	"buttons": [
		"Study design",
		"Additional endpoints",
		"VISTA DME"
	]
}