{
	"texts": {
		"headline": "Eligibility criteria<sup data-reference-id='vividEast'></sup>",
		"wrappers": [
			{
				"term": "Inclusion criteria",
				"descriptons": [
					"Adults &ge;18 years of age with type 1 or type 2 diabetes mellitus",
					"Decrease in vision determined to be primarily the result of DME in the study eye",
					"BCVA ETDRS letter score 73 to 24 (20/40 to 20/320) in the study eye"
				]
			},
			{
				"term": "Exclusion criteria",
				"descriptons": [
					"Laser photocoagulation (panretinal or macular) in the study eye within 90 days of study day 1",
					"Previous use of intraocular or periocular corticosteroids in the study eye within 120 days of study day 1",
					"Previous treatment with anti-VEGF drugs in the study eye (pegaptanib sodium, bevacizumab, ranibizumab, etc.) within 90 days of study day 1",
					"Active proliferative diabetic retinopathy in the study eye",
					"Uncontrolled diabetes mellitus",
					"Only 1 functional eye, even if that eye is otherwise eligible for the study"
				]
			}
		]
	}
}