{
	"lead_paragraph": "HOW DO YOU SEE THE <mark>DIFFERENCES<br> IN MECHANISMS OF ACTION</mark> FOR<br> DIFFERENT ANTI-VEGF TREATMENTS?",
	"slider_value": [
		"No relevant differences",
		"Unsure",
		"Substantially different"
	]
}
