{
	"veeva": {
		"product_name": "Testing - Tier 1",
		"country": "Global",
		"related_resource_id": "",
		"presentations": [
			{
				"slideshow_id": "home",
				"presentation_name": "default_structure_from_generator",
				"presentation_id": "default_structure_from_generator",
				"presentation_prefix": "default_structure_from_generator_",
				"hidden": "NO",
				"document_id": "",
				"document_start_slide__id": ""
			}
		]
	}
}