{
	"headline": "PGF ALSO RECRUITS IMMUNE CELLS WHICH RELEASE INFLAMMATORY CYTOKINES, <br>AMPLIFYING THE EFFECTS OF VEGF AND PGF IN THE RETINA<sup data-reference-id='bhagat'></sup>",
	"data": {
		"additional": {
			"items": [
				"VEGF",
				"PGF"
			],
			"text": "VEGFR-1<br><span>in immune cells</span>",
			"state":{
				"top_texts":[
					"PGF"
				],
				"middle_texts":[
					"VEGFR-1"
				],
				"bottom_text":"Increased <br>inflammatory <br>cytokines"
			}
		},
		"rows": [
			{
				"items": [
					"DIABETES"
				]
			},
			{
				"items": [
					"IMPAIRED VASCULAR FUNCTION IMPAIRED RETINAL BLOOD FLOW"
				]
			},
			{
				"items": [
					"HYPOXIA"
				]
			},
			{
				"items": [
					"NEOVASCULARIZATION",
					"INFLAMMATORY CYTOKINES"
				]
			},
			{
				"items": [
					"VESSEL LEAKAGE AND EDEMA"
				]
			}
		]
	}
}