{
	"headline": "<mark>EYLEA<sup>&reg;</sup></mark>: MEAN CHANGE IN CST THROUGH WEEK 148<sup data-reference-id='heier'></sup>",
	"slideshow_headline": "IN VIVID DME…",
	"graph": {

		"h_scale": [
			"0",
			"4",
			"12",
			"20",
			"52",
			"100",
			"148"
		],
		"h_caption": "Week",
		"v_scale": [
			"-250",
			"-200",
			"-150",
			"-100",
			"-50",
			"0"
		],
		"v_caption": "&micro;m",
		"lines": [
			{
				"value": "–122.6"
			},
			{
				"value": "–202.8"
			}
		],
		"graph_blocks": [],
		"legend": [
			"<strong>EYLEA<sup>&reg;</sup> 2 mg</strong> administered every month (4 weeks) for the first 5 months, followed by once every 2 months (8 weeks); <strong>n=135.</strong><sup data-reference-id='heier'></sup>",
			"<strong>Laser</strong> photocoagulation administered as needed, no more often than every 12 weeks; <strong>n=132.</strong><sup data-reference-id='heier'></sup>"
		]
	}
}