{
	"headline": "EYLEA<sup>&reg;</sup>: UNIQUE MECHANISM OF ACTION",
	"lead_paragraph": "TARGETING VEGF AND PGF: TWO CRITICAL FACTORS RESPONSIBLE FOR DME<sup data-reference-id='eylea,kovacs-rakic'></sup>",
	"factors": [
		{
			"title": "VEGF",
			"description": "Stimulates <mark>neovascularization</mark><sup data-reference-id='bhagat'></sup>"
		},
		{
			"title": "PGF",
			"description": "Stimulates <mark>neovascularization</mark> and production <br>of <mark>inflammatory mediators</mark><sup data-reference-id='ando,rakic'></sup>"
		}
	],
	"figure": [
		{
			"title": "‘TRAP’ MECHANISM FOR TIGHTER BINDING<sup data-reference-id='eylea,papadopoulos'></sup>",
			"descriptions": [
				"<b>EYLEA<sup>&reg;</sup> is the only approved</b> anti-angiogenic therapy that <b>targets <br>both VEGF-A</b> and <b>PGF</b>, with greater affinity than natural receptors<sup data-reference-id='eylea'></sup>",
				"VEGF-A-binding affinity up to <mark>100-fold</mark> that of ranibizumab<sup data-reference-id='papadopoulos'></sup>"
			]
		},
		{
			"title": "LONG-LASTING EFFECT<sup data-reference-id='fauser-aflibercept'></sup>",
			"descriptions": [
				"<b>Suppresses anterior chamber VEGF</b> for a mean of <b>&gt;10 weeks –</b> <br><mark>twice as long</mark> as ranibizumab<sup data-reference-id='fauser'></sup>"
			]
		}
	],
	"buttons": [
		"EYLEA<sup>&reg;</sup> MOA",
		"DEX"
	]
}