{
	"headline": "AN OVERVIEW ACROSS MULTIPLE TRIALS SUGGESTS PEAK VISUAL ACUITY GAINS OCCUR ABOUT 2 MONTHS POST-INJECTION, FOLLOWED BY PROGRESSIVE DECLINE OVER TIME<sup data-reference-id='boyer-callanan'></sup><sup>,</sup><sup data-notes='study_visits'></sup>",
	"headline_1": "AN OVERVIEW ACROSS MULTIPLE TRIALS SUGGESTS PEAK VISUAL ACUITY GAINS OCCUR ABOUT 2 MONTHS POST-INJECTION, FOLLOWED BY PROGRESSIVE DECLINE OVER TIME<sup data-reference-id='boyer-callanan'></sup>",
	"buttons": [
		"MEAD",
		"BEVORDEX",
		"Callanan <em>et al.</em>"
	],
	"graph": {
		"caption": "Mean change in BCVA from baseline<sup data-reference-id='boyer-callanan'></sup>",
		"v_caption": "Mean change<br> in BCVA ETDRS letters",
		"v_scale": [
			"0",
			"1",
			"2",
			"3",
			"4",
			"5",
			"6",
			"7",
			"8",
			"9"
		],
		"h_caption": "Month",
		"h_scale": [
			"0",
			"0.5",
			"1",
			"1.5",
			"2",
			"2.5",
			"3",
			"3.5",
			"4",
			"4.5",
			"5",
			"5.5",
			"6"
		],
		"lines": [
			{
				"value": "MEAD"
			},
			{
				"value": "BEVORDEX"
			},
			{
				"value": "Callanan <em>et al.</em>"
			}
		],
		"legend": [
			"DEX 0.7 mg (n=351)"
		]
	},
	"dose": "Dose"
}