{
	"headline": "ACTIVATION OF VEGFR-1 AND VEGFR-2 RECEPTORS BY VEGF AND PGF <br>PROMOTES ANGIOGENESIS AND NEOVASCULARIZATION<sup data-reference-id='kovacs,bhagat'></sup>",
	"data": {
		"additional": {
			"items": [
				"VEGF",
				"PGF"
			],
			"text": "VEGFR-1, VEGFR-2<br><span>in vascular endothelium</span>",
			"state":{
				"top_texts":[
					"PGF",
					"VEGF"
				],
				"middle_texts":[
					"VEGFR-1",
					"VEGFR-2"
				],
				"bottom_text":"Angiogenesis and <br>neovascularization"
			}
		},
		"rows": [
			{
				"items": [
					"DIABETES"
				]
			},
			{
				"items": [
					"IMPAIRED VASCULAR FUNCTION IMPAIRED RETINAL BLOOD FLOW"
				]
			},
			{
				"items": [
					"HYPOXIA"
				]
			},
			{
				"items": [
					"NEOVASCULARIZATION",
					"INFLAMMATORY CYTOKINES"
				]
			},
			{
				"items": [
					"VESSEL LEAKAGE AND EDEMA"
				]
			}
		]
	}
}