{
	"headline": "A MULTI-TARGET MoA",
	"lead_paragraph": "EYLEA<sup>®</sup> is a fully human recombinant fusion protein that contains portions of native VEGFR-1 and VEGFR-2<sup data-reference-id='papadopoulos-semeraro '></sup>",
	"buttons": [
		"TIGHT BINDING",
		"MULTI-ACTION",
		"EFFICACY DURATION"
	],
	"blocks": {
		"block1": {
			"headline": "TIGHT BINDING AFFINITY<br /> VS NATIVE RECEPTORS",
			"text": [
				"EYLEA<sup>®</sup> acts as a decoy receptor for<br /> different VEGF molecules,<sup data-reference-id='papadopoulos,assessment'></sup> being<br /> specifically engineered to have very<br /> high affinity for VEGF-A and PGF.<sup data-reference-id='amadio,rudge'></sup> <br />The binding affinity for these molecules<br /> is higher than that of native receptors.<sup data-reference-id='eylea'></sup>"
			]
		},
		"block2": {
			"headline": "MULTI-ACTION",
			"text": [
				"EYLEA<sup>®</sup> blocks all isoforms of<br />VEGF-A, VEGF-B and PIGF<sup data-reference-id='aflibercept'></sup>"
			]
		},
		"block3": {
			"headline": "EFFICACY DURATION",
			"text": [
				"The predicted, time-dependent<br /> intravitreal biological activity of<br /> EYLEA<sup>®</sup> is 83 days.<sup data-reference-id='aflibercept'></sup>"
			]
		}
	}
}