{
	"headline": "START STRONG WITH EYLEA<sup>&reg;</sup>",
	"lead_paragraph": "FOR EARLY VISION GAINS IN PATIENTS WITH DME<sup data-reference-id='korobelnik,vivid,ziemssen'></sup>",
	"left_side": {
		"figcaption": "AFTER RECEIVING",
		"number": "5",
		"text": "initial monthly<br> doses of<br> <span>EYLEA<sup>&reg;</sup> 2 mg</span>"
	},
	"figures": [
		{
			"label": "ON AVERAGE,<br> PATIENTS ACHIEVED",
			"number": "87",
			"bottom_text": "OF MEAN VISION<br> GAINED AT YEAR 1<sup data-reference-id='korobelnik,vivid'></sup>"
		},
		{
			"number": "80",
			"bottom_text": "OF PATIENTS GAINED<br> <mark>AT LEAST 1 LINE<br> OF VISION<sup data-reference-id='ziemssen'></sup><sup>,</sup><sup data-notes='data_dme'></sup><mark>"
		}
	]
}