{
	"headline": "<mark>EYLEA<sup>&reg;</sup></mark> is a fusion protein designed to tightly bind or ‘trap’ VEGF and PGF<sup data-reference-id='eylea'></sup>",
	"figure": {
		"name": "EYLEA<sup>&reg;</sup> MOLECULE",
		"left_part": [
			"VEGFR-2 domain",
			"Fc fragment of IgG",
			"VEGFR-1 domain"
		],
		"right_part": [
			"VEGF dimer",
			"PGF dimer"
		]
	},
	"foot_text": "EYLEA<sup>&reg;</sup> BINDS MORE TIGHTLY TO VEGF THAN THE NATIVE VEGF RECEPTORS<sup data-reference-id='eylea'></sup>"
}