{
	"headline": "STAY STRONG WITH EYLEA<sup>&reg;</sup>",
	"sub_header": "PROACTIVE DOSING MAY BE ABLE TO OPTIMIZE VISION <br>WHILE REDUCING MANAGEMENT BURDEN<sup data-reference-id='korobelnik,heier'></sup>",
	"scheme": {
		"labels": [
			"Beyond 52 Weeks",
			"First 52 Weeks"
		],
		"columns": [
			"Flexible <small>such as</small> treat-and-extend",
			"Extend to <br>every 2 months <small>until 52 weeks</small>",
			"5 monthly <small>injections</small>"
		]
	},
	"figcaption": "Reducing burden with extended dosing<sup data-reference-id='korobelnik,heier'></sup>",
	"button": "Dosing schedule"
}