{
	"headline": "Treat-and-extend LABELING with <strong>EYLEA<sup>&reg;</sup></strong>",
	"lead_paragraph": "The recommended dose of EYLEA<sup>&reg;</sup> for DME is 2 <span>mg</span>, equivalent to 50 <span>&mu;l</span>, administered with 5 initial monthly doses followed by one injection every two months<sup data-reference-id='eylea'></sup>",
	"label": {
		"top_caption": "LABEL UPDATE",
		"main_caption": "Treat-and-extend dosing now approved for EYLEA<sup>&reg;</sup> in DME",
		"bottom_caption": "by the European Medicines Agency<sup data-reference-id='eylea'></sup>"
	},
	"summary": "\"After the first 12 months of treatment with EYLEA<sup>&reg;</sup>, and based on visual and/or anatomic outcomes, the treatment interval may be extended, such as with a treat-and-extend dosing regimen, where the treatment intervals are gradually increased to maintain stable visual and/or anatomic outcomes\"",
	"note": "EYLEA<sup>&reg;</sup> Summary of Product Characteristics<sup data-reference-id='eylea'></sup>"
}