{
	"headline": "<mark>EYLEA<sup>&reg;</sup></mark>: RAPID AND ROBUST MEAN REDUCTIONS IN CRT<sup data-reference-id='diabetic'></sup><sup>,</sup><sup data-notes='treatment_regimen'></sup>",
	"lead_paragraph": "IN PROTOCOL T…",
	"graph": {
		"caption": "Mean change in CRT though Week 52<sup data-reference-id='diabetic'></sup>",
		"v_caption": "µm",
		"v_scale": [
			"–180",
			"–160",
			"–140",
			"–120",
			"–100",
			"–80",
			"–60",
			"–40",
			"–20",
			"0"
		],
		"h_caption": "Week",
		"h_scale": [
			"0",
			"4",
			"8",
			"12",
			"16",
			"20",
			"24",
			"28",
			"32",
			"36",
			"40",
			"44",
			"48",
			"52"
		],
		"lines": [
			{
				"value": "–169",
				"name": "Protocol T"
			}
		],
		"legend": [
			"<strong>EYLEA<sup>&reg;</sup> 2 mg</strong> administered every month (4 weeks) unless vision &ge;20/20 with &lt;250 μm on Zeiss Stratus equivalent and no improvement or worsening <br>in response to the previous 2 injections, for the first 20 weeks; thereafter injection was withheld if stable (see study design page for definitions); <br><strong>Protocol T n=224</strong>.<sup data-reference-id='diabetic'></sup>"
		]
	}
}