{
	"headline": "DEX: less effective inhibition of VEGF<sup data-reference-id='papadopoulos,kim'></sup>",
	"list": [
		"Anti-VEGF treatments <br>are more effective <br>against VEGF compared <br>with DEX<sup data-reference-id='papadopoulos,kim'></sup>",
		"<mark>EYLEA<sup>&reg;</sup></mark> also acts on PGF, <br>which is known to promote <br>leukocyte infiltration and <br>vascular inflammation<sup data-reference-id='eylea'></sup>"
	]
}