{
	"headline": "BASELINE DISEASE CHARACTERISTICS<sup data-reference-id='vividEast'></sup>",
	"table": {
		"thead": [
			{
				"th01": "",
				"th02_class-vivid_colspanned_3": ""
			},
			{
				"th01": "",
				"th02_class-blue": "EYLEA<sup>&reg;</sup> 2q8",
				"th03_class-white": "EYLEA<sup>&reg;</sup> 2q4",
				"th04_class-light-gray": "Laser"
			}
		],
		"tbody": [

			{
				"th01": "n",
				"td02": "127",
				"td03": "127",
				"td04": "124"
			},
			{
				"th01": "BCVA, ETDRS letters (SD)",
				"td02": "57.1 (12.5)",
				"td03": "55.6 (12.1)",
				"td04": "55.1 (14.2)"
			},
			{
				"th01": "CRT, &micro;m (SD)",
				"td02": "520.3 (154.8)",
				"td03": "526.3 (164.4)",
				"td04": "527.7 (170.5)"
			},
			{
				"th01": "NEI-VFQ score",
				"td02": "",
				"td03": "",
				"td04": ""
			},
			{
				"th01": "Total, points (SD)",
				"td02": "68.9 (16.8)",
				"td03": "67.9 (17.1)",
				"td04": "69.7 (17.1)"
			},
			{
				"th01": "Distance, points (SD)",
				"td02": "69.8 (22.9)",
				"td03": "72.4 (23.2)",
				"td04": "74.1 (21.8)"
			},
			{
				"th01": "Near, points (SD)",
				"td02": "64.6 (23.8)",
				"td03": "63.9 (22.7)",
				"td04": "65.3 (25.0)"
			}
		]
	}
}