{
	"texts":{
		"headline": "STUDY DESIGN<sup data-reference-id='vividEast'></sup>",
		"sub_header": "RANDOMIZED, MULTICENTER, DOUBLE-MASKED TRIAL IN PATIENTS WITH CLINICALLY<br>SIGNIFICANT DME WITH CENTRAL INVOLVEMENT AND BCVA 20/40 TO 20/320",
		"schema":[
			{
				"text":"(n=381)"
			},
			{
				"rows":[
					{
						"items":[
							{
								"title":"<b>Patients randomized<br>1:1:1</b>"
							}
						]
					},
					{
						"items":[
							{
								"title":"EYLEA<sup>&reg;</sup><br>2 mg q8 wks<sup data-notes='monthly_doses_8'></sup>"
							},
							{
								"title":"EYLEA<sup>&reg;</sup><br>2 mg q4 wks"
							},
							{
								"title":"Laser<br>photocoagulation<sup data-notes='grid_laser_8'></sup>"
							}
						]
					},
					{
						"items":[
							{
								"title":"<b>Rescue protocol after 24 weeks:</b>",
								"content":"When criteria for additional treatment were met,<sup data-notes='study_eyes'></sup> study eyes in the 2q4 and 2q8 groups received active laser<br>(rather than sham) from Week 24 onward, while those in the laser group received 5 doses of EYLEA<sup>&reg;</sup> 2 mg every<br>4 weeks followed by dosing every 8 weeks."
							}
						]
					},
					{
						"items":[
							{
								"title":"<b>Primary outcome:</b>",
								"content":"Mean change in BCVA"
							},
							{
								"title":"<b>Primary endpoint:</b>",
								"content":"<b>Week 52</b>"
							},
							{
								"title":"<b>Key secondary outcomes:</b>",
								"list":[
									"Percentage of patients gaining 3 lines",
									"Change in Diabetic Retinopathy Severity Scale"
								]
							}
						]
					}
				]
			}
		]
	}
}