{
	"headline": "Baseline characteristics<sup data-reference-id='diabetic'></sup><sup>,</sup><sup data-notes='dose_ranibizumab'>a</sup>",
	"table": {
		"thead": [
			{
				"th_01_colspanned_1": "",
				"th02_class-yellow_colspanned_3": "Protocol T"
			},
			{
				"th_01_colspanned_1": "",
				"th02_class-blue": "EYLEA<sup>&reg;</sup>",
				"th03_class-light-gray": "Bevacizumab",
				"th04_class-gray": "Ranibizumab"
			}
		],
		"tbody": [
			{
				"th01": "n",
				"td02": "224",
				"td03": "218",
				"td04": "218"
			},
			{
				"th01": "Age, years, median (25<sup>th</sup>, 75<sup>th</sup> percentile)",
				"td02": "61 (54, 66)",
				"td03": "63 (56, 68)",
				"td04": "59 (53, 67)"
			},
			{
				"th01": "Female, n (%)",
				"td02": "110 (49)",
				"td03": "103 (47)",
				"td04": "94 (43)"
			},
			{
				"th01": "Race, n (%)",
				"td02": "&nbsp;",
				"td03": "&nbsp;",
				"td04": "&nbsp;"
			},
			{
				"th01": "White",
				"td05": "145 (65)",
				"td03": "139 (64)",
				"td04": "146 (67)"
			},
			{
				"th01": "Black",
				"td02": "32 (14)",
				"td03": "37 (17)",
				"td04": "36 (17)"
			},
			{
				"th01": "Hispanic",
				"td02": "37 (17)",
				"td03": "36 (17)",
				"td04": "30 (14)"
			},
			{
				"th01": "Asian",
				"td02": "2 (&lt;1)",
				"td03": "2 (&lt;1)",
				"td04": "4 (2)"
			},
			{
				"th01": "Other",
				"td02": "8 (4)",
				"td03": "4 (2)",
				"td04": "2 (&lt;1)"
			},
			{
				"th01": "HbA<sub>1c</sub>, %, median (25<sup>th</sup>, 75<sup>th</sup> percentile)<sup data-notes='missing_hba'></sup>",
				"td02": "7.6 (6.8, 9.1)",
				"td03": "7.7 (6.8, 8.8)",
				"td04": "7.8 (6.9, 9.2)"
			},
			{
				"th01": "Duration of diabetes, years (25<sup>th</sup>, 75<sup>th</sup> percentile)",
				"td02": "15 (8, 21)",
				"td03": "17 (11, 24)",
				"td04": "16 (11, 23)"
			}
		]
	}
}