{
	"slides": {
		"HomePageSlide": {
			"id": "HomePageSlide",
			"name": "DME_Eff_StartScreen_Slide",
			"files": {
				"templates": [
					"slides/HomePageSlide/HomePageSlide.pug"
				],
				"scripts": [
					"slides/HomePageSlide/HomePageSlide.coffee"
				],
				"styles": [
					"slides/HomePageSlide/HomePageSlide.styl"
				]
			}
		},
		"RecentInsights10Slide": {
			"id": "RecentInsights10Slide",
			"name": "DME_Eff_InsightsGoals_Slide",
			"files": {
				"templates": [
					"slides/RecentInsights10Slide/RecentInsights10Slide.pug"
				],
				"scripts": [
					"slides/RecentInsights10Slide/RecentInsights10Slide.coffee"
				],
				"styles": [
					"slides/RecentInsights10Slide/RecentInsights10Slide.styl"
				]
			}
		},
		"RecentInsights11Slide": {
			"id": "RecentInsights11Slide",
			"name": "DME_Eff_InsightsConcernInput_Slide",
			"files": {
				"templates": [
					"slides/RecentInsights11Slide/RecentInsights11Slide.pug"
				],
				"scripts": [
					"slides/RecentInsights11Slide/RecentInsights11Slide.coffee"
				],
				"styles": [
					"slides/RecentInsights11Slide/RecentInsights11Slide.styl"
				]
			}
		},
		"RecentInsights12Slide": {
			"id": "RecentInsights12Slide",
			"name": "DME_Eff_InsightsAntiVEGFDose_Slide",
			"files": {
				"templates": [
					"slides/RecentInsights12Slide/RecentInsights12Slide.pug"
				],
				"scripts": [
					"slides/RecentInsights12Slide/RecentInsights12Slide.coffee"
				],
				"styles": [
					"slides/RecentInsights12Slide/RecentInsights12Slide.styl"
				]
			}
		},
		"RecentInsights13Slide": {
			"id": "RecentInsights13Slide",
			"name": "DME_Eff_InsightsAntiVEGFTherapy_Slide",
			"files": {
				"templates": [
					"slides/RecentInsights13Slide/RecentInsights13Slide.pug"
				],
				"scripts": [
					"slides/RecentInsights13Slide/RecentInsights13Slide.coffee"
				],
				"styles": [
					"slides/RecentInsights13Slide/RecentInsights13Slide.styl"
				]
			}
		},
		"RecentInsights14Slide": {
			"id": "RecentInsights14Slide",
			"name": "DME_Eff_InsightsMonthyDosesInput_Slide",
			"files": {
				"templates": [
					"slides/RecentInsights14Slide/RecentInsights14Slide.pug"
				],
				"scripts": [
					"slides/RecentInsights14Slide/RecentInsights14Slide.coffee"
				],
				"styles": [
					"slides/RecentInsights14Slide/RecentInsights14Slide.styl"
				]
			}
		},
		"RecentInsights15Slide": {
			"id": "RecentInsights15Slide",
			"name": "DME_Eff_InsightsRapidInitialVisionGains_Slide",
			"files": {
				"templates": [
					"slides/RecentInsights15Slide/RecentInsights15Slide.pug"
				],
				"scripts": [
					"slides/RecentInsights15Slide/RecentInsights15Slide.coffee"
				],
				"styles": [
					"slides/RecentInsights15Slide/RecentInsights15Slide.styl"
				]
			}
		},
		"RecentInsights16Slide": {
			"id": "RecentInsights16Slide",
			"name": "DME_Eff_InsightsDifferencesEfficacy_Slide",
			"files": {
				"templates": [
					"slides/RecentInsights16Slide/RecentInsights16Slide.pug"
				],
				"scripts": [
					"slides/RecentInsights16Slide/RecentInsights16Slide.coffee"
				],
				"styles": [
					"slides/RecentInsights16Slide/RecentInsights16Slide.styl"
				]
			}
		},
		"RecentInsights17Slide": {
			"id": "RecentInsights17Slide",
			"name": "DME_Eff_InsightsDifferencesPathology_Slide",
			"files": {
				"templates": [
					"slides/RecentInsights17Slide/RecentInsights17Slide.pug"
				],
				"scripts": [
					"slides/RecentInsights17Slide/RecentInsights17Slide.coffee"
				],
				"styles": [
					"slides/RecentInsights17Slide/RecentInsights17Slide.styl"
				]
			}
		},
		"RecentInsights18Slide": {
			"id": "RecentInsights18Slide",
			"name": "DME_Eff_InsightsDifferencesMoA_Slide",
			"files": {
				"templates": [
					"slides/RecentInsights18Slide/RecentInsights18Slide.pug"
				],
				"scripts": [
					"slides/RecentInsights18Slide/RecentInsights18Slide.coffee"
				],
				"styles": [
					"slides/RecentInsights18Slide/RecentInsights18Slide.styl"
				]
			}
		},
		"RecentInsights19Slide": {
			"id": "RecentInsights19Slide",
			"name": "DME_Eff_InsightsDifferencesMoAInput_Slide",
			"files": {
				"templates": [
					"slides/RecentInsights19Slide/RecentInsights19Slide.pug"
				],
				"scripts": [
					"slides/RecentInsights19Slide/RecentInsights19Slide.coffee"
				],
				"styles": [
					"slides/RecentInsights19Slide/RecentInsights19Slide.styl"
				]
			}
		},
		"RecentInsights110Slide": {
			"id": "RecentInsights110Slide",
			"name": "DME_Eff_InsightsClinicalEfficacy_Slide",
			"files": {
				"templates": [
					"slides/RecentInsights110Slide/RecentInsights110Slide.pug"
				],
				"scripts": [
					"slides/RecentInsights110Slide/RecentInsights110Slide.coffee"
				],
				"styles": [
					"slides/RecentInsights110Slide/RecentInsights110Slide.styl"
				]
			}
		},
		"RecentInsights111Slide": {
			"id": "RecentInsights111Slide",
			"name": "DME_Eff_InsightsLastPrescribed_Slide",
			"files": {
				"templates": [
					"slides/RecentInsights111Slide/RecentInsights111Slide.pug"
				],
				"scripts": [
					"slides/RecentInsights111Slide/RecentInsights111Slide.coffee"
				],
				"styles": [
					"slides/RecentInsights111Slide/RecentInsights111Slide.styl"
				]
			}
		},
		"RecentInsights112Slide": {
			"id": "RecentInsights112Slide",
			"name": "DME_Eff_InsightsAnnualDosing_Slide",
			"files": {
				"templates": [
					"slides/RecentInsights112Slide/RecentInsights112Slide.pug"
				],
				"scripts": [
					"slides/RecentInsights112Slide/RecentInsights112Slide.coffee"
				],
				"styles": [
					"slides/RecentInsights112Slide/RecentInsights112Slide.styl"
				]
			}
		},
		"Eylea20Slide": {
			"id": "Eylea20Slide",
			"name": "DRSS_EyleaStartStayUnique_State1_Slide",
			"files": {
				"templates": [
					"slides/Eylea20Slide/Eylea20Slide.pug"
				],
				"scripts": [
					"slides/Eylea20Slide/Eylea20Slide.coffee"
				],
				"styles": [
					"slides/Eylea20Slide/Eylea20Slide.styl"
				]
			}
		},
		"StartStrong30Slide": {
			"id": "StartStrong30Slide",
			"name": "DME_Eff_StartStrongVividDME_State1_Slide",
			"files": {
				"templates": [
					"slides/StartStrong30Slide/StartStrong30Slide.pug"
				],
				"scripts": [
					"slides/StartStrong30Slide/StartStrong30Slide.coffee"
				],
				"styles": [
					"slides/StartStrong30Slide/StartStrong30Slide.styl"
				]
			}
		},
		"StartStrong31Slide": {
			"id": "StartStrong31Slide",
			"name": "DME_Eff_PatientsVisionGainInput_Slide",
			"files": {
				"templates": [
					"slides/StartStrong31Slide/StartStrong31Slide.pug"
				],
				"scripts": [
					"slides/StartStrong31Slide/StartStrong31Slide.coffee"
				],
				"styles": [
					"slides/StartStrong31Slide/StartStrong31Slide.styl"
				]
			}
		},
		"StartStrong32Slide": {
			"id": "StartStrong32Slide",
			"name": "DME_Eff_80PctAchievedVisionGain_Slide",
			"files": {
				"templates": [
					"slides/StartStrong32Slide/StartStrong32Slide.pug"
				],
				"scripts": [
					"slides/StartStrong32Slide/StartStrong32Slide.coffee"
				],
				"styles": [
					"slides/StartStrong32Slide/StartStrong32Slide.styl"
				]
			}
		},
		"StartStrong35Slide": {
			"id": "StartStrong35Slide",
			"name": "DME_Eff_StartStrongProtocolT_State1_Slide",
			"files": {
				"templates": [
					"slides/StartStrong35Slide/StartStrong35Slide.pug"
				],
				"scripts": [
					"slides/StartStrong35Slide/StartStrong35Slide.coffee"
				],
				"styles": [
					"slides/StartStrong35Slide/StartStrong35Slide.styl"
				]
			}
		},
		"StayStrong40Slide": {
			"id": "StayStrong40Slide",
			"name": "DME_Eff_StayStrongMaintainGains_State1_Slide",
			"files": {
				"templates": [
					"slides/StayStrong40Slide/StayStrong40Slide.pug"
				],
				"scripts": [
					"slides/StayStrong40Slide/StayStrong40Slide.coffee"
				],
				"styles": [
					"slides/StayStrong40Slide/StayStrong40Slide.styl"
				]
			}
		},
		"StayStrong41Slide": {
			"id": "StayStrong41Slide",
			"name": "DME_Eff_StayStrongExtendedDosing_Slide",
			"files": {
				"templates": [
					"slides/StayStrong41Slide/StayStrong41Slide.pug"
				],
				"scripts": [
					"slides/StayStrong41Slide/StayStrong41Slide.coffee"
				],
				"styles": [
					"slides/StayStrong41Slide/StayStrong41Slide.styl"
				]
			}
		},
		"UniqueMoA50Slide": {
			"id": "UniqueMoA50Slide",
			"name": "DME_Eff_UniqueMOA_Slide",
			"files": {
				"templates": [
					"slides/UniqueMoA50Slide/UniqueMoA50Slide.pug"
				],
				"scripts": [
					"slides/UniqueMoA50Slide/UniqueMoA50Slide.coffee"
				],
				"styles": [
					"slides/UniqueMoA50Slide/UniqueMoA50Slide.styl"
				]
			}
		},
		"Discussion60Slide": {
			"id": "Discussion60Slide",
			"name": "DME_Eff_DiscussionOverview_Slide",
			"files": {
				"templates": [
					"slides/Discussion60Slide/Discussion60Slide.pug"
				],
				"scripts": [
					"slides/Discussion60Slide/Discussion60Slide.coffee"
				],
				"styles": [
					"slides/Discussion60Slide/Discussion60Slide.styl"
				]
			}
		},
		"Discussion61Slide": {
			"id": "Discussion61Slide",
			"name": "DME_Eff_DiscussionMonthlyDosesInput_Slide",
			"files": {
				"templates": [
					"slides/Discussion61Slide/Discussion61Slide.pug"
				],
				"scripts": [
					"slides/Discussion61Slide/Discussion61Slide.coffee"
				],
				"styles": [
					"slides/Discussion61Slide/Discussion61Slide.styl"
				]
			}
		},
		"Discussion62Slide": {
			"id": "Discussion62Slide",
			"name": "DME_Eff_DiscussionIntensiveDosingBenefits_Slide",
			"files": {
				"templates": [
					"slides/Discussion62Slide/Discussion62Slide.pug"
				],
				"scripts": [
					"slides/Discussion62Slide/Discussion62Slide.coffee"
				],
				"styles": [
					"slides/Discussion62Slide/Discussion62Slide.styl"
				]
			}
		},
		"Discussion63Slide": {
			"id": "Discussion63Slide",
			"name": "DME_Eff_DiscussionDosingVisionGain_Slide",
			"files": {
				"templates": [
					"slides/Discussion63Slide/Discussion63Slide.pug"
				],
				"scripts": [
					"slides/Discussion63Slide/Discussion63Slide.coffee"
				],
				"styles": [
					"slides/Discussion63Slide/Discussion63Slide.styl"
				]
			}
		},
		"Discussion64Slide": {
			"id": "Discussion64Slide",
			"name": "DME_Eff_DiscussionLaserTreatment_Slide",
			"files": {
				"templates": [
					"slides/Discussion64Slide/Discussion64Slide.pug"
				],
				"scripts": [
					"slides/Discussion64Slide/Discussion64Slide.coffee"
				],
				"styles": [
					"slides/Discussion64Slide/Discussion64Slide.styl"
				]
			}
		},
		"Discussion65Slide": {
			"id": "Discussion65Slide",
			"name": "DME_Eff_Discussion5InitialMonthlyDose_Slide",
			"files": {
				"templates": [
					"slides/Discussion65Slide/Discussion65Slide.pug"
				],
				"scripts": [
					"slides/Discussion65Slide/Discussion65Slide.coffee"
				],
				"styles": [
					"slides/Discussion65Slide/Discussion65Slide.styl"
				]
			}
		},
		"Discussion66Slide": {
			"id": "Discussion66Slide",
			"name": "DME_Eff_DiscussionTreatmentOfChoice_Slide",
			"files": {
				"templates": [
					"slides/Discussion66Slide/Discussion66Slide.pug"
				],
				"scripts": [
					"slides/Discussion66Slide/Discussion66Slide.coffee"
				],
				"styles": [
					"slides/Discussion66Slide/Discussion66Slide.styl"
				]
			}
		},
		"Discussion67Slide": {
			"id": "Discussion67Slide",
			"name": "DME_Eff_DiscussionEyleaPositioning_Slide",
			"files": {
				"templates": [
					"slides/Discussion67Slide/Discussion67Slide.pug"
				],
				"scripts": [
					"slides/Discussion67Slide/Discussion67Slide.coffee"
				],
				"styles": [
					"slides/Discussion67Slide/Discussion67Slide.styl"
				]
			}
		},
		"Discussion68Slide": {
			"id": "Discussion68Slide",
			"name": "DME_Eff_DiscussionInensiveDosingBenefits_Slide",
			"files": {
				"templates": [
					"slides/Discussion68Slide/Discussion68Slide.pug"
				],
				"scripts": [
					"slides/Discussion68Slide/Discussion68Slide.coffee"
				],
				"styles": [
					"slides/Discussion68Slide/Discussion68Slide.styl"
				]
			}
		},
		"Discussion69Slide": {
			"id": "Discussion69Slide",
			"name": "DME_Eff_DiscussionMaxAndMaintain_Slide",
			"files": {
				"templates": [
					"slides/Discussion69Slide/Discussion69Slide.pug"
				],
				"scripts": [
					"slides/Discussion69Slide/Discussion69Slide.coffee"
				],
				"styles": [
					"slides/Discussion69Slide/Discussion69Slide.styl"
				]
			}
		},
		"Discussion610Slide": {
			"id": "Discussion610Slide",
			"name": "DME_Eff_DiscussionImproveAndMaintain_Slide",
			"files": {
				"templates": [
					"slides/Discussion610Slide/Discussion610Slide.pug"
				],
				"scripts": [
					"slides/Discussion610Slide/Discussion610Slide.coffee"
				],
				"styles": [
					"slides/Discussion610Slide/Discussion610Slide.styl"
				]
			}
		},
		"Discussion611Slide": {
			"id": "Discussion611Slide",
			"name": "DME_Eff_DiscussionFlexibleDosing_Slide",
			"files": {
				"templates": [
					"slides/Discussion611Slide/Discussion611Slide.pug"
				],
				"scripts": [
					"slides/Discussion611Slide/Discussion611Slide.coffee"
				],
				"styles": [
					"slides/Discussion611Slide/Discussion611Slide.styl"
				]
			}
		},
		"Discussion612Slide": {
			"id": "Discussion612Slide",
			"name": "DME_Eff_DiscussionDosingSchedules_Slide",
			"files": {
				"templates": [
					"slides/Discussion612Slide/Discussion612Slide.pug"
				],
				"scripts": [
					"slides/Discussion612Slide/Discussion612Slide.coffee"
				],
				"styles": [
					"slides/Discussion612Slide/Discussion612Slide.styl"
				]
			}
		},
		"StartStrong30A1PopupSlide": {
			"id": "StartStrong30A1PopupSlide",
			"name": "CRT",
			"monitoring" :{
				"name": "DME_Eff_CRTRapidReductionsVividDME_PopUp"
			},
			"files": {
				"templates": [
					"slides/StartStrong30A1PopupSlide/StartStrong30A1PopupSlide.pug"
				],
				"scripts": [
					"slides/StartStrong30A1PopupSlide/StartStrong30A1PopupSlide.coffee"
				],
				"styles": [
					"slides/StartStrong30A1PopupSlide/StartStrong30A1PopupSlide.styl"
				]
			}
		},
		"StartStrong30B1PopupSlide": {
			"id": "StartStrong30B1PopupSlide",
			"name": "STUDY<br> DESIGN",
			"monitoring" :{
				"name": "DME_Eff_SDVividDME_PopUp"
			},
			"files": {
				"templates": [
					"slides/StartStrong30B1PopupSlide/StartStrong30B1PopupSlide.pug"
				],
				"scripts": [
					"slides/StartStrong30B1PopupSlide/StartStrong30B1PopupSlide.coffee"
				],
				"styles": [
					"slides/StartStrong30B1PopupSlide/StartStrong30B1PopupSlide.styl"
				]
			}
		},
		"StartStrong30B2PopupSlide": {
			"id": "StartStrong30B2PopupSlide",
			"name": "DOSING AND<br> MONITORING SCHEDULE",
			"monitoring" :{
				"name": "DME_Eff_SDVividDMEDosingSchedule_PopUp"
			},
			"files": {
				"templates": [
					"slides/StartStrong30B2PopupSlide/StartStrong30B2PopupSlide.pug"
				],
				"scripts": [
					"slides/StartStrong30B2PopupSlide/StartStrong30B2PopupSlide.coffee"
				],
				"styles": [
					"slides/StartStrong30B2PopupSlide/StartStrong30B2PopupSlide.styl"
				]
			}
		},
		"StartStrong30B3PopupSlide": {
			"id": "StartStrong30B3PopupSlide",
			"name": "BASELINE<br> CHARACTERISTICS",
			"monitoring" :{
				"name": "DME_Eff_SDVividDMEBaselineCharacteristics_PopUp"
			},
			"files": {
				"templates": [
					"slides/StartStrong30B3PopupSlide/StartStrong30B3PopupSlide.pug"
				],
				"scripts": [
					"slides/StartStrong30B3PopupSlide/StartStrong30B3PopupSlide.coffee"
				],
				"styles": [
					"slides/StartStrong30B3PopupSlide/StartStrong30B3PopupSlide.styl"
				]
			}
		},
		"StartStrong30B4PopupSlide": {
			"id": "StartStrong30B4PopupSlide",
			"name": "BASELINE DISEASE<br> CHARACTERISTICS",
			"monitoring" :{
				"name": "DME_Eff_SDVividDMEBaselineDiseaseCharacteristics_PopUp"
			},
			"files": {
				"templates": [
					"slides/StartStrong30B4PopupSlide/StartStrong30B4PopupSlide.pug"
				],
				"scripts": [
					"slides/StartStrong30B4PopupSlide/StartStrong30B4PopupSlide.coffee"
				],
				"styles": [
					"slides/StartStrong30B4PopupSlide/StartStrong30B4PopupSlide.styl"
				]
			}
		},
		"StartStrong30B5PopupSlide": {
			"id": "StartStrong30B5PopupSlide",
			"name": "ELIGIBILITY<br> CRITERIA",
			"monitoring" :{
				"name": "DME_Eff_SDVividDMEEligibilityCriteria_PopUp"
			},
			"files": {
				"templates": [
					"slides/StartStrong30B5PopupSlide/StartStrong30B5PopupSlide.pug"
				],
				"scripts": [
					"slides/StartStrong30B5PopupSlide/StartStrong30B5PopupSlide.coffee"
				],
				"styles": [
					"slides/StartStrong30B5PopupSlide/StartStrong30B5PopupSlide.styl"
				]
			}
		},
		"StartStrong30C1PopupSlide": {
			"id": "StartStrong30C1PopupSlide",
			"name": "BCVA",
			"monitoring" :{
				"name": "DME_Eff_BCVAVistaDME_PopUp"
			},
			"files": {
				"templates": [
					"slides/StartStrong30C1PopupSlide/StartStrong30C1PopupSlide.pug"
				],
				"scripts": [
					"slides/StartStrong30C1PopupSlide/StartStrong30C1PopupSlide.coffee"
				],
				"styles": [
					"slides/StartStrong30C1PopupSlide/StartStrong30C1PopupSlide.styl"
				]
			}
		},
		"StartStrong30C3PopupSlide": {
			"id": "StartStrong30C3PopupSlide",
			"name": "CRT",
			"monitoring" :{
				"name": "DME_Eff_CRTVistaDME_PopUp"
			},
			"files": {
				"templates": [
					"slides/StartStrong30C3PopupSlide/StartStrong30C3PopupSlide.pug"
				],
				"scripts": [
					"slides/StartStrong30C3PopupSlide/StartStrong30C3PopupSlide.coffee"
				],
				"styles": [
					"slides/StartStrong30C3PopupSlide/StartStrong30C3PopupSlide.styl"
				]
			}
		},
		"StartStrong35A2PopupSlide": {
			"id": "StartStrong35A2PopupSlide",
			"name": "BASELINE<br> CHARACTERISTICS",
			"monitoring" :{
				"name": "DME_Eff_SDProtocolTBaselineCharacteristics_PopUp"
			},
			"files": {
				"templates": [
					"slides/StartStrong35A2PopupSlide/StartStrong35A2PopupSlide.pug"
				],
				"scripts": [
					"slides/StartStrong35A2PopupSlide/StartStrong35A2PopupSlide.coffee"
				],
				"styles": [
					"slides/StartStrong35A2PopupSlide/StartStrong35A2PopupSlide.styl"
				]
			}
		},
		"StartStrong35A3PopupSlide": {
			"id": "StartStrong35A3PopupSlide",
			"name": "BASELINE DISEASE<br> CHARACTERISTICS",
			"monitoring" :{
				"name": "DME_Eff_SDProtocolTBaselineDiseaseCharacteristics_PopUp"
			},
			"files": {
				"templates": [
					"slides/StartStrong35A3PopupSlide/StartStrong35A3PopupSlide.pug"
				],
				"scripts": [
					"slides/StartStrong35A3PopupSlide/StartStrong35A3PopupSlide.coffee"
				],
				"styles": [
					"slides/StartStrong35A3PopupSlide/StartStrong35A3PopupSlide.styl"
				]
			}
		},
		"StartStrong35A4PopupSlide": {
			"id": "StartStrong35A4PopupSlide",
			"name": "ELIGIBILITY<br> CRITERIA",
			"monitoring" :{
				"name": "DME_Eff_SDProtocolTEligibilityCriteria_PopUp"
			},
			"files": {
				"templates": [
					"slides/StartStrong35A4PopupSlide/StartStrong35A4PopupSlide.pug"
				],
				"scripts": [
					"slides/StartStrong35A4PopupSlide/StartStrong35A4PopupSlide.coffee"
				],
				"styles": [
					"slides/StartStrong35A4PopupSlide/StartStrong35A4PopupSlide.styl"
				]
			}
		},
		"StartStrong35B1PopupSlide": {
			"id": "StartStrong35B1PopupSlide",
			"name": "CRT",
			"monitoring" :{
				"name": "DME_Eff_CRTProtocolT_PopUp"
			},
			"files": {
				"templates": [
					"slides/StartStrong35B1PopupSlide/StartStrong35B1PopupSlide.pug"
				],
				"scripts": [
					"slides/StartStrong35B1PopupSlide/StartStrong35B1PopupSlide.coffee"
				],
				"styles": [
					"slides/StartStrong35B1PopupSlide/StartStrong35B1PopupSlide.styl"
				]
			}
		},
		"StayStrong40A1PopupSlide": {
			"id": "StayStrong40A1PopupSlide",
			"isSkipped": true,
			"name": "BCVA",
			"monitoring" :{
				"name": "DME_Eff_BCVALongTermDosingGains_State1_PopUp"
			},
			"files": {
				"templates": [
					"slides/StayStrong40A1PopupSlide/StayStrong40A1PopupSlide.pug"
				],
				"scripts": [
					"slides/StayStrong40A1PopupSlide/StayStrong40A1PopupSlide.coffee"
				],
				"styles": [
					"slides/StayStrong40A1PopupSlide/StayStrong40A1PopupSlide.styl"
				]
			}
		},
		"StayStrong40A2PopupSlide": {
			"id": "StayStrong40A2PopupSlide",
			"name": "CRT",
			"monitoring" :{
				"name": "DME_Eff_CRTReductions_PopUp"
			},
			"files": {
				"templates": [
					"slides/StayStrong40A2PopupSlide/StayStrong40A2PopupSlide.pug"
				],
				"scripts": [
					"slides/StayStrong40A2PopupSlide/StayStrong40A2PopupSlide.coffee"
				],
				"styles": [
					"slides/StayStrong40A2PopupSlide/StayStrong40A2PopupSlide.styl"
				]
			}
		},
		"StayStrong40B1PopupSlide": {
			"id": "StayStrong40B1PopupSlide",
			"name": "CRT",
			"monitoring" :{
				"name": "DME_Eff_CRTReductionsvsLaser_PopUp"
			},
			"files": {
				"templates": [
					"slides/StayStrong40B1PopupSlide/StayStrong40B1PopupSlide.pug"
				],
				"scripts": [
					"slides/StayStrong40B1PopupSlide/StayStrong40B1PopupSlide.coffee"
				],
				"styles": [
					"slides/StayStrong40B1PopupSlide/StayStrong40B1PopupSlide.styl"
				]
			}
		},
		"StayStrong40C1PopupSlide": {
			"id": "StayStrong40C1PopupSlide",
			"name": "BCVA",
			"monitoring" :{
				"name": "DME_Eff_BCVATreatment_PopUp"
			},
			"files": {
				"templates": [
					"slides/StayStrong40C1PopupSlide/StayStrong40C1PopupSlide.pug"
				],
				"scripts": [
					"slides/StayStrong40C1PopupSlide/StayStrong40C1PopupSlide.coffee"
				],
				"styles": [
					"slides/StayStrong40C1PopupSlide/StayStrong40C1PopupSlide.styl"
				]
			}
		},
		"StayStrong40C2PopupSlide": {
			"id": "StayStrong40C2PopupSlide",
			"name": "CRT",
			"monitoring" :{
				"name": "DME_Eff_CRTvsLaser_PopUp"
			},
			"files": {
				"templates": [
					"slides/StayStrong40C2PopupSlide/StayStrong40C2PopupSlide.pug"
				],
				"scripts": [
					"slides/StayStrong40C2PopupSlide/StayStrong40C2PopupSlide.coffee"
				],
				"styles": [
					"slides/StayStrong40C2PopupSlide/StayStrong40C2PopupSlide.styl"
				]
			}
		},
		"StayStrong41A1PopupSlide": {
			"id": "StayStrong41A1PopupSlide",
			"name": "DOSING SCHEDULE<br> IN YEAR 1",
			"monitoring" :{
				"name": "DME_Eff_DosingScheduleYear1_PopUp"
			},
			"files": {
				"templates": [
					"slides/StayStrong41A1PopupSlide/StayStrong41A1PopupSlide.pug"
				],
				"scripts": [
					"slides/StayStrong41A1PopupSlide/StayStrong41A1PopupSlide.coffee"
				],
				"styles": [
					"slides/StayStrong41A1PopupSlide/StayStrong41A1PopupSlide.styl"
				]
			}
		},
		"StayStrong41A3PopupSlide": {
			"id": "StayStrong41A3PopupSlide",
			"name": "EXAMPLE EXTENSION<br> SCHEDULES 1",
			"monitoring" :{
				"name": "DME_Eff_ExtensionSchedules1_PopUp"
			},
			"files": {
				"templates": [
					"slides/StayStrong41A3PopupSlide/StayStrong41A3PopupSlide.pug"
				],
				"scripts": [
					"slides/StayStrong41A3PopupSlide/StayStrong41A3PopupSlide.coffee"
				],
				"styles": [
					"slides/StayStrong41A3PopupSlide/StayStrong41A3PopupSlide.styl"
				]
			}
		},
		"StayStrong41A4PopupSlide": {
			"id": "StayStrong41A4PopupSlide",
			"name": "EXAMPLE EXTENSION<br> SCHEDULES 2",
			"monitoring" :{
				"name": "DME_Eff_ExtensionSchedules2_PopUp"
			},
			"files": {
				"templates": [
					"slides/StayStrong41A4PopupSlide/StayStrong41A4PopupSlide.pug"
				],
				"scripts": [
					"slides/StayStrong41A4PopupSlide/StayStrong41A4PopupSlide.coffee"
				],
				"styles": [
					"slides/StayStrong41A4PopupSlide/StayStrong41A4PopupSlide.styl"
				]
			}
		},
		"MultiTargetApproachSlide": {
			"id": "MultiTargetApproachSlide",
			"name": "Multi Target Approach",
			"monitoring" :{
				"name": "DME_Eff_Multitarget_approach"
			},
			"files": {
				"templates": [
					"slides/MultiTargetApproachSlide/MultiTargetApproachSlide.pug"
				],
				"scripts": [
					"slides/MultiTargetApproachSlide/MultiTargetApproachSlide.coffee"
				],
				"styles": [
					"slides/MultiTargetApproachSlide/MultiTargetApproachSlide.styl"
				]
			}
		},
		"UniqueMoA50A1PopupSlide": {
			"id": "UniqueMoA50A1PopupSlide",
			"name": "DME_Eff_MoAChartPathogenesis_PopUp",
			"files": {
				"templates": [
					"slides/UniqueMoA50A1PopupSlide/UniqueMoA50A1PopupSlide.pug"
				],
				"scripts": [
					"slides/UniqueMoA50A1PopupSlide/UniqueMoA50A1PopupSlide.coffee"
				],
				"styles": [
					"slides/UniqueMoA50A1PopupSlide/UniqueMoA50A1PopupSlide.styl"
				]
			}
		},
		"UniqueMoA50A2PopupSlide": {
			"id": "UniqueMoA50A2PopupSlide",
			"name": "DME_Eff_MoADiseaseCascade_PopUp",
			"files": {
				"templates": [
					"slides/UniqueMoA50A2PopupSlide/UniqueMoA50A2PopupSlide.pug"
				],
				"scripts": [
					"slides/UniqueMoA50A2PopupSlide/UniqueMoA50A2PopupSlide.coffee"
				],
				"styles": [
					"slides/UniqueMoA50A2PopupSlide/UniqueMoA50A2PopupSlide.styl"
				]
			}
		},
		"UniqueMoA50A3PopupSlide": {
			"id": "UniqueMoA50A3PopupSlide",
			"name": "DME_Eff_MoADiseaseVEGF_PopUp",
			"files": {
				"templates": [
					"slides/UniqueMoA50A3PopupSlide/UniqueMoA50A3PopupSlide.pug"
				],
				"scripts": [
					"slides/UniqueMoA50A3PopupSlide/UniqueMoA50A3PopupSlide.coffee"
				],
				"styles": [
					"slides/UniqueMoA50A3PopupSlide/UniqueMoA50A3PopupSlide.styl"
				]
			}
		},
		"Eylea50Slide": {
			"id": "Eylea50Slide",
			"name": "DME_Eff_50Slide",
			"files": {
				"templates": [
					"slides/Eylea50Slide/Eylea50Slide.pug"
				],
				"scripts": [
					"slides/Eylea50Slide/Eylea50Slide.coffee"
				],
				"styles": [
					"slides/Eylea50Slide/Eylea50Slide.styl"
				]
			}
		},
		"UniqueMoA50A4PopupSlide": {
			"id": "UniqueMoA50A4PopupSlide",
			"name": "DME_Eff_MoADiseasePGF_PopUp",
			"files": {
				"templates": [
					"slides/UniqueMoA50A4PopupSlide/UniqueMoA50A4PopupSlide.pug"
				],
				"scripts": [
					"slides/UniqueMoA50A4PopupSlide/UniqueMoA50A4PopupSlide.coffee"
				],
				"styles": [
					"slides/UniqueMoA50A4PopupSlide/UniqueMoA50A4PopupSlide.styl"
				]
			}
		},
		"UniqueMoA50A5PopupSlide": {
			"id": "UniqueMoA50A5PopupSlide",
			"name": "DME_Eff_MoAEyleaMolecule_PopUp",
			"files": {
				"templates": [
					"slides/UniqueMoA50A5PopupSlide/UniqueMoA50A5PopupSlide.pug"
				],
				"scripts": [
					"slides/UniqueMoA50A5PopupSlide/UniqueMoA50A5PopupSlide.coffee"
				],
				"styles": [
					"slides/UniqueMoA50A5PopupSlide/UniqueMoA50A5PopupSlide.styl"
				]
			}
		},
		"UniqueMoA50A6PopupSlide": {
			"id": "UniqueMoA50A6PopupSlide",
			"name": "DME_Eff_MoAEyleaMoA_PopUp",
			"files": {
				"templates": [
					"slides/UniqueMoA50A6PopupSlide/UniqueMoA50A6PopupSlide.pug"
				],
				"scripts": [
					"slides/UniqueMoA50A6PopupSlide/UniqueMoA50A6PopupSlide.coffee"
				],
				"styles": [
					"slides/UniqueMoA50A6PopupSlide/UniqueMoA50A6PopupSlide.styl"
				]
			}
		},
		"UniqueMoA50B1PopupSlide": {
			"id": "UniqueMoA50B1PopupSlide",
			"name": "SUMMARY",
			"monitoring" :{
				"name": "DME_Eff_DEXSummary_PopUp"
			},
			"files": {
				"templates": [
					"slides/UniqueMoA50B1PopupSlide/UniqueMoA50B1PopupSlide.pug"
				],
				"scripts": [
					"slides/UniqueMoA50B1PopupSlide/UniqueMoA50B1PopupSlide.coffee"
				],
				"styles": [
					"slides/UniqueMoA50B1PopupSlide/UniqueMoA50B1PopupSlide.styl"
				]
			}
		},
		"UniqueMoA50B2PopupSlide": {
			"id": "UniqueMoA50B2PopupSlide",
			"name": "EFFICACY",
			"monitoring" :{
				"name": "DME_Eff_DEXEfficacy_PopUp"
			},
			"files": {
				"templates": [
					"slides/UniqueMoA50B2PopupSlide/UniqueMoA50B2PopupSlide.pug"
				],
				"scripts": [
					"slides/UniqueMoA50B2PopupSlide/UniqueMoA50B2PopupSlide.coffee"
				],
				"styles": [
					"slides/UniqueMoA50B2PopupSlide/UniqueMoA50B2PopupSlide.styl"
				]
			}
		},
		"UniqueMoA50B3PopupSlide": {
			"id": "UniqueMoA50B3PopupSlide",
			"name": "DURABILITY",
			"isSkipped": true,
			"monitoring" :{
				"name": "DME_Eff_DEXDurability_State1_PopUp"
			},
			"files": {
				"templates": [
					"slides/UniqueMoA50B3PopupSlide/UniqueMoA50B3PopupSlide.pug"
				],
				"scripts": [
					"slides/UniqueMoA50B3PopupSlide/UniqueMoA50B3PopupSlide.coffee"
				],
				"styles": [
					"slides/UniqueMoA50B3PopupSlide/UniqueMoA50B3PopupSlide.styl"
				]
			}
		},
		"UniqueMoA50B4PopupSlide": {
			"id": "UniqueMoA50B4PopupSlide",
			"name": "MOA",
			"monitoring" :{
				"name": "DME_Eff_DEXMoA_PopUp"
			},
			"files": {
				"templates": [
					"slides/UniqueMoA50B4PopupSlide/UniqueMoA50B4PopupSlide.pug"
				],
				"scripts": [
					"slides/UniqueMoA50B4PopupSlide/UniqueMoA50B4PopupSlide.coffee"
				],
				"styles": [
					"slides/UniqueMoA50B4PopupSlide/UniqueMoA50B4PopupSlide.styl"
				]
			}
		},
		"UniqueMoA50B5PopupSlide": {
			"id": "UniqueMoA50B5PopupSlide",
			"name": "SAFETY",
			"monitoring" :{
				"name": "DME_Eff_DEXSafety_PopUp"
			},
			"files": {
				"templates": [
					"slides/UniqueMoA50B5PopupSlide/UniqueMoA50B5PopupSlide.pug"
				],
				"scripts": [
					"slides/UniqueMoA50B5PopupSlide/UniqueMoA50B5PopupSlide.coffee"
				],
				"styles": [
					"slides/UniqueMoA50B5PopupSlide/UniqueMoA50B5PopupSlide.styl"
				]
			}
		},
		"ContraindicationsSlide": {
			"id": "ContraindicationsSlide",
			"name": "ContraindicationsSlide",
			"files": {
				"templates": [
					"slides/ContraindicationsSlide/ContraindicationsSlide.pug"
				],
				"scripts": [
					"slides/ContraindicationsSlide/ContraindicationsSlide.coffee"
				],
				"styles": [
					"slides/ContraindicationsSlide/ContraindicationsSlide.styl"
				]
			}
		},
		"MostFrequentlyObservedSlide": {
			"id": "MostFrequentlyObservedSlide",
			"name": "MostFrequentlyObservedSlide",
			"files": {
				"templates": [
					"slides/MostFrequentlyObservedSlide/MostFrequentlyObservedSlide.pug"
				],
				"scripts": [
					"slides/MostFrequentlyObservedSlide/MostFrequentlyObservedSlide.coffee"
				],
				"styles": [
					"slides/MostFrequentlyObservedSlide/MostFrequentlyObservedSlide.styl"
				]
			}
		},
		"RecentInsights10Slide": {
			"id": "RecentInsights10Slide",
			"name": "DME_Eff_InsightsGoals_Slide",
			"files": {
				"templates": [
					"slides/RecentInsights10Slide/RecentInsights10Slide.pug"
				],
				"scripts": [
					"slides/RecentInsights10Slide/RecentInsights10Slide.coffee"
				],
				"styles": [
					"slides/RecentInsights10Slide/RecentInsights10Slide.styl"
				]
			}
		},
		"RI_Quiz_1": {
			"id": "RI_Quiz_1",
			"name": "DME_Eff_RI Quiz 1",
			"files": {
				"templates": [
					"slides/RI_Quiz_1/RI_Quiz_1.pug"
				],
				"scripts": [
					"slides/RI_Quiz_1/RI_Quiz_1.coffee"
				],
				"styles": [
					"slides/RI_Quiz_1/RI_Quiz_1.styl"
				]
			}
		},
		"RI_Quiz_2": {
			"id": "RI_Quiz_2",
			"name": "DME_Eff_RI Quiz 2",
			"files": {
				"templates": [
					"slides/RI_Quiz_2/RI_Quiz_2.pug"
				],
				"scripts": [
					"slides/RI_Quiz_2/RI_Quiz_2.coffee"
				],
				"styles": [
					"slides/RI_Quiz_2/RI_Quiz_2.styl"
				]
			}
		},
		"RI_Quiz_3": {
			"id": "RI_Quiz_3",
			"name": "DME_Eff_RI Quiz 3",
			"files": {
				"templates": [
					"slides/RI_Quiz_3/RI_Quiz_3.pug"
				],
				"scripts": [
					"slides/RI_Quiz_3/RI_Quiz_3.coffee"
				],
				"styles": [
					"slides/RI_Quiz_3/RI_Quiz_3.styl"
				]
			}
		},
		"RI_Quiz_4": {
			"id": "RI_Quiz_4",
			"name": "DME_Eff_RI Quiz 4",
			"files": {
				"templates": [
					"slides/RI_Quiz_4/RI_Quiz_4.pug"
				],
				"scripts": [
					"slides/RI_Quiz_4/RI_Quiz_4.coffee"
				],
				"styles": [
					"slides/RI_Quiz_4/RI_Quiz_4.styl"
				]
			}
		},
		"RI_Quiz_5": {
			"id": "RI_Quiz_5",
			"name": "DME_Eff_RI Quiz 5",
			"files": {
				"templates": [
					"slides/RI_Quiz_5/RI_Quiz_5.pug"
				],
				"scripts": [
					"slides/RI_Quiz_5/RI_Quiz_5.coffee"
				],
				"styles": [
					"slides/RI_Quiz_5/RI_Quiz_5.styl"
				]
			}
		},
		"RI_Quiz_6": {
			"id": "RI_Quiz_6",
			"name": "DME_Eff_RI Quiz 6",
			"files": {
				"templates": [
					"slides/RI_Quiz_6/RI_Quiz_6.pug"
				],
				"scripts": [
					"slides/RI_Quiz_6/RI_Quiz_6.coffee"
				],
				"styles": [
					"slides/RI_Quiz_6/RI_Quiz_6.styl"
				]
			}
		},
		"RI_Quiz_7": {
			"id": "RI_Quiz_7",
			"name": "DME_Eff_RI Quiz 7",
			"files": {
				"templates": [
					"slides/RI_Quiz_7/RI_Quiz_7.pug"
				],
				"scripts": [
					"slides/RI_Quiz_7/RI_Quiz_7.coffee"
				],
				"styles": [
					"slides/RI_Quiz_7/RI_Quiz_7.styl"
				]
			}
		},
		"RI_Quiz_8": {
			"id": "RI_Quiz_8",
			"name": "DME_Eff_RI Quiz 8",
			"files": {
				"templates": [
					"slides/RI_Quiz_8/RI_Quiz_8.pug"
				],
				"scripts": [
					"slides/RI_Quiz_8/RI_Quiz_8.coffee"
				],
				"styles": [
					"slides/RI_Quiz_8/RI_Quiz_8.styl"
				]
			}
		},
		"RI_Quiz_9": {
			"id": "RI_Quiz_9",
			"name": "DME_Eff_RI Quiz 9",
			"files": {
				"templates": [
					"slides/RI_Quiz_9/RI_Quiz_9.pug"
				],
				"scripts": [
					"slides/RI_Quiz_9/RI_Quiz_9.coffee"
				],
				"styles": [
					"slides/RI_Quiz_9/RI_Quiz_9.styl"
				]
			}
		},
		"RI_Quiz_10": {
			"id": "RI_Quiz_10",
			"name": "DME_Eff_RI Quiz 10",
			"files": {
				"templates": [
					"slides/RI_Quiz_10/RI_Quiz_10.pug"
				],
				"scripts": [
					"slides/RI_Quiz_10/RI_Quiz_10.coffee"
				],
				"styles": [
					"slides/RI_Quiz_10/RI_Quiz_10.styl"
				]
			}
		},
		"RI_Quiz_11": {
			"id": "RI_Quiz_11",
			"name": "DME_Eff_RI Quiz 11",
			"files": {
				"templates": [
					"slides/RI_Quiz_11/RI_Quiz_11.pug"
				],
				"scripts": [
					"slides/RI_Quiz_11/RI_Quiz_11.coffee"
				],
				"styles": [
					"slides/RI_Quiz_11/RI_Quiz_11.styl"
				]
			}
		},
		"RI_Quiz_12": {
			"id": "RI_Quiz_12",
			"name": "DME_Eff_RI Quiz 12",
			"files": {
				"templates": [
					"slides/RI_Quiz_12/RI_Quiz_12.pug"
				],
				"scripts": [
					"slides/RI_Quiz_12/RI_Quiz_12.coffee"
				],
				"styles": [
					"slides/RI_Quiz_12/RI_Quiz_12.styl"
				]
			}
		},
		"RI_Quiz_13": {
			"id": "RI_Quiz_13",
			"name": "DME_Eff_RI Quiz 13",
			"files": {
				"templates": [
					"slides/RI_Quiz_13/RI_Quiz_13.pug"
				],
				"scripts": [
					"slides/RI_Quiz_13/RI_Quiz_13.coffee"
				],
				"styles": [
					"slides/RI_Quiz_13/RI_Quiz_13.styl"
				]
			}
		},
		"RI_Quiz_14": {
			"id": "RI_Quiz_14",
			"name": "DME_Eff_RI Quiz 14",
			"files": {
				"templates": [
					"slides/RI_Quiz_14/RI_Quiz_14.pug"
				],
				"scripts": [
					"slides/RI_Quiz_14/RI_Quiz_14.coffee"
				],
				"styles": [
					"slides/RI_Quiz_14/RI_Quiz_14.styl"
				]
			}
		},
		"RI_Quiz_15": {
			"id": "RI_Quiz_15",
			"name": "DME_Eff_RI Quiz 15",
			"files": {
				"templates": [
					"slides/RI_Quiz_15/RI_Quiz_15.pug"
				],
				"scripts": [
					"slides/RI_Quiz_15/RI_Quiz_15.coffee"
				],
				"styles": [
					"slides/RI_Quiz_15/RI_Quiz_15.styl"
				]
			}
		},
		"RI_Quiz_16": {
			"id": "RI_Quiz_16",
			"name": "DME_Eff_RI Quiz 16",
			"files": {
				"templates": [
					"slides/RI_Quiz_16/RI_Quiz_16.pug"
				],
				"scripts": [
					"slides/RI_Quiz_16/RI_Quiz_16.coffee"
				],
				"styles": [
					"slides/RI_Quiz_16/RI_Quiz_16.styl"
				]
			}
		},
		"RI_Quiz_17": {
			"id": "RI_Quiz_17",
			"name": "DME_Eff_RI Quiz 17",
			"files": {
				"templates": [
					"slides/RI_Quiz_17/RI_Quiz_17.pug"
				],
				"scripts": [
					"slides/RI_Quiz_17/RI_Quiz_17.coffee"
				],
				"styles": [
					"slides/RI_Quiz_17/RI_Quiz_17.styl"
				]
			}
		},
		"RI_Quiz_18": {
			"id": "RI_Quiz_18",
			"name": "DME_Eff_RI Quiz 18",
			"files": {
				"templates": [
					"slides/RI_Quiz_18/RI_Quiz_18.pug"
				],
				"scripts": [
					"slides/RI_Quiz_18/RI_Quiz_18.coffee"
				],
				"styles": [
					"slides/RI_Quiz_18/RI_Quiz_18.styl"
				]
			}
		},
		"RI_Quiz_19": {
			"id": "RI_Quiz_19",
			"name": "DME_Eff_RI Quiz 19",
			"files": {
				"templates": [
					"slides/RI_Quiz_19/RI_Quiz_19.pug"
				],
				"scripts": [
					"slides/RI_Quiz_19/RI_Quiz_19.coffee"
				],
				"styles": [
					"slides/RI_Quiz_19/RI_Quiz_19.styl"
				]
			}
		},
		"RI_Quiz_20": {
			"id": "RI_Quiz_20",
			"name": "DME_Eff_RI Quiz 20",
			"files": {
				"templates": [
					"slides/RI_Quiz_20/RI_Quiz_20.pug"
				],
				"scripts": [
					"slides/RI_Quiz_20/RI_Quiz_20.coffee"
				],
				"styles": [
					"slides/RI_Quiz_20/RI_Quiz_20.styl"
				]
			}
		},
		"RI_Quiz_21": {
			"id": "RI_Quiz_21",
			"name": "DME_Eff_RI Quiz 21",
			"files": {
				"templates": [
					"slides/RI_Quiz_21/RI_Quiz_21.pug"
				],
				"scripts": [
					"slides/RI_Quiz_21/RI_Quiz_21.coffee"
				],
				"styles": [
					"slides/RI_Quiz_21/RI_Quiz_21.styl"
				]
			}
		},
		"RI_Quiz_22": {
			"id": "RI_Quiz_22",
			"name": "DME_Eff_RI Quiz 22",
			"files": {
				"templates": [
					"slides/RI_Quiz_22/RI_Quiz_22.pug"
				],
				"scripts": [
					"slides/RI_Quiz_22/RI_Quiz_22.coffee"
				],
				"styles": [
					"slides/RI_Quiz_22/RI_Quiz_22.styl"
				]
			}
		},
		"RI_Quiz_23": {
			"id": "RI_Quiz_23",
			"name": "DME_Eff_RI Quiz 23",
			"files": {
				"templates": [
					"slides/RI_Quiz_23/RI_Quiz_23.pug"
				],
				"scripts": [
					"slides/RI_Quiz_23/RI_Quiz_23.coffee"
				],
				"styles": [
					"slides/RI_Quiz_23/RI_Quiz_23.styl"
				]
			}
		},
		"RI_Quiz_24": {
			"id": "RI_Quiz_24",
			"name": "DME_Eff_RI Quiz 24",
			"files": {
				"templates": [
					"slides/RI_Quiz_24/RI_Quiz_24.pug"
				],
				"scripts": [
					"slides/RI_Quiz_24/RI_Quiz_24.coffee"
				],
				"styles": [
					"slides/RI_Quiz_24/RI_Quiz_24.styl"
				]
			}
		},
		"RI_Quiz_25": {
			"id": "RI_Quiz_25",
			"name": "DME_Eff_RI Quiz 25",
			"files": {
				"templates": [
					"slides/RI_Quiz_25/RI_Quiz_25.pug"
				],
				"scripts": [
					"slides/RI_Quiz_25/RI_Quiz_25.coffee"
				],
				"styles": [
					"slides/RI_Quiz_25/RI_Quiz_25.styl"
				]
			}
		}
	},
	"modules": {
		"ag-slide-analytics": {
			"name": "Agnitio Slide Analytics",
			"description": "Save data about the slides visited. Will call ag.submit.slide(data).",
			"files": {
				"scripts": [
					"modules/rainmaker_modules/ag-slide-analytics/ag-slide-analytics.js"
				]
			},
			"version": "0.7.0"
		},
		"ag-auto-menu": {
			"name": "Agnitio Auto Menu",
			"description": "Menu that automatically builds.",
			"files": {
				"styles": [
					"modules/rainmaker_modules/ag-auto-menu/ag-auto-menu.css"
				],
				"scripts": [
					"modules/rainmaker_modules/ag-auto-menu/ag-auto-menu.js"
				]
			},
			"version": "0.8.5"
		},
		"ag-slide-popup": {
			"files": {
				"scripts": [
					"modules/rainmaker_modules/ag-slide-popup/ag-slide-popup.js"
				],
				"styles": [
					"modules/rainmaker_modules/ag-slide-popup/ag-slide-popup.css"
				]
			}
		},
		"ag-overlay": {
			"name": "Agnitio Overlay",
			"type": "universal",
			"description": "Creates an overlay to the presentation.",
			"files": {
				"styles": [
					"modules/rainmaker_modules/ag-overlay/ag-overlay.css"
				],
				"scripts": [
					"modules/rainmaker_modules/ag-overlay/ag-overlay.js"
				]
			},
			"version": "0.5.0"
		},
		"ag-video": {
			"name": "Agnitio Video Module",
			"description": "Wrapper for HTML5 video tag to add states and custom controls",
			"files": {
				"templates": [
					"modules/rainmaker_modules/ag-video/ag-video.html"
				],
				"styles": [
					"modules/rainmaker_modules/ag-video/ag-video.css"
				],
				"scripts": [
					"modules/rainmaker_modules/ag-video/ag-video.js"
				]
			},
			"version": "0.9.6"
		},
		"ag-viewer": {
			"id": "ag-viewer",
			"files": {
				"scripts": [
					"modules/rainmaker_modules/ag-viewer/ag-viewer.js"
				],
				"styles": [
					"modules/rainmaker_modules/ag-viewer/ag-viewer.css"
				]
			}
		},
		"ap-toolbar": {
			"id": "ap-toolbar",
			"files": {
				"templates": [
					"modules/rainmaker_modules/ap-toolbar/ap-toolbar.html"
				],
				"scripts": [
					"modules/rainmaker_modules/ap-toolbar/ap-toolbar.js"
				],
				"styles": [
					"modules/rainmaker_modules/ap-toolbar/ap-toolbar.css"
				]
			}
		},
		"ap-overview": {
			"id": "ap-overview",
			"files": {
				"templates": [
					"modules/rainmaker_modules/ap-overview/ap-overview.html"
				],
				"scripts": [
					"modules/rainmaker_modules/ap-overview/ap-overview.js"
				],
				"styles": [
					"modules/rainmaker_modules/ap-overview/ap-overview.css"
				]
			}
		},
		"ap-module": {
			"id": "ap-module",
			"files": {
				"templates": [],
				"scripts": [
					"modules/rainmaker_modules/ap-module/ap-module.js"
				],
				"styles": []
			}
		},
		"ap-auto-menu-handle": {
			"id": "ap-auto-menu-handle",
			"files": {
				"templates": [],
				"scripts": [
					"modules/rainmaker_modules/ap-auto-menu-handle/ap-auto-menu-handle.js"
				],
				"styles": [
					"modules/rainmaker_modules/ap-auto-menu-handle/ap-auto-menu-handle.css"
				]
			}
		},
		"ap-custom-collections-storage": {
			"id": "ap-custom-collections-storage",
			"files": {
				"templates": [],
				"scripts": [
					"modules/rainmaker_modules/ap-custom-collections-storage/ap-custom-collections-storage.js"
				],
				"styles": []
			}
		},
		"ap-custom-collections-menu": {
			"id": "ap-custom-collections-menu",
			"files": {
				"templates": [
					"modules/rainmaker_modules/ap-custom-collections-menu/ap-custom-collections-menu.html"
				],
				"scripts": [
					"modules/rainmaker_modules/ap-custom-collections-menu/ap-custom-collections-menu.js"
				],
				"styles": [
					"modules/rainmaker_modules/ap-custom-collections-menu/ap-custom-collections-menu.css"
				]
			}
		},
		"ap-custom-collections": {
			"id": "ap-custom-collections",
			"files": {
				"templates": [
					"modules/rainmaker_modules/ap-custom-collections/ap-custom-collections.html"
				],
				"scripts": [
					"modules/rainmaker_modules/ap-custom-collections/ap-custom-collections.js"
				],
				"styles": [
					"modules/rainmaker_modules/ap-custom-collections/ap-custom-collections.css"
				]
			}
		},
		"ap-content-groups": {
			"id": "ap-content-groups",
			"files": {
				"templates": [],
				"scripts": [
					"modules/rainmaker_modules/ap-content-groups/ap-content-groups.js"
				],
				"styles": []
			}
		},
		"ap-auto-references-popup": {
			"id": "ap-auto-references-popup",
			"files": {
				"templates": [],
				"scripts": [
					"modules/rainmaker_modules/ap-auto-references-popup/ap-auto-references-popup.js"
				],
				"styles": [
					"modules/rainmaker_modules/ap-auto-references-popup/ap-auto-references-popup.css"
				]
			}
		},
		"ah-auto-references-popup": {
			"id": "ah-auto-references-popup",
			"files": {
				"templates": [],
				"scripts": [
					"modules/rainmaker_modules/ah-auto-references-popup/ah-auto-references-popup.js"
				],
				"styles": [
					"modules/rainmaker_modules/ah-auto-references-popup/ah-auto-references-popup.css"
				]
			}
		},
		"ap-auto-side-clip": {
			"id": "ap-auto-side-clip",
			"files": {
				"templates": [],
				"scripts": [
					"modules/rainmaker_modules/ap-auto-side-clip/ap-auto-side-clip.js"
				],
				"styles": [
					"modules/rainmaker_modules/ap-auto-side-clip/ap-auto-side-clip.css"
				]
			}
		},
		"ap-media-repository": {
			"id": "ap-media-repository",
			"files": {
				"templates": [],
				"scripts": [
					"modules/rainmaker_modules/ap-media-repository/ap-media-repository.js"
				]
			}
		},
		"ap-back-navigation": {
			"id": "ap-back-navigation",
			"files": {
				"templates": [],
				"scripts": [
					"modules/rainmaker_modules/ap-back-navigation/ap-back-navigation.js"
				],
				"styles": []
			}
		},
		"ap-favorite-presentations-buttons": {
			"id": "ap-favorite-presentations-buttons",
			"files": {
				"templates": [
					"modules/rainmaker_modules/ap-favorite-presentations-buttons/ap-favorite-presentations-buttons.html"
				],
				"scripts": [
					"modules/rainmaker_modules/ap-favorite-presentations-buttons/ap-favorite-presentations-buttons.js"
				],
				"styles": [
					"modules/rainmaker_modules/ap-favorite-presentations-buttons/ap-favorite-presentations-buttons.css"
				]
			}
		},
		"ap-media-library": {
			"id": "ap-media-library",
			"files": {
				"templates": [
					"modules/rainmaker_modules/ap-media-library/ap-media-library.html"
				],
				"scripts": [
					"modules/rainmaker_modules/ap-media-library/ap-media-library.js"
				],
				"styles": [
					"modules/rainmaker_modules/ap-media-library/ap-media-library.css"
				]
			}
		},
		"ap-reference-library": {
			"id": "ap-reference-library",
			"files": {
				"templates": [
					"modules/rainmaker_modules/ap-reference-library/ap-reference-library.html"
				],
				"scripts": [
					"modules/rainmaker_modules/ap-reference-library/ap-reference-library.js"
				],
				"styles": [
					"modules/rainmaker_modules/ap-reference-library/ap-reference-library.css"
				]
			}
		},
		"ap-video-library": {
			"id": "ap-video-library",
			"files": {
				"templates": [
					"modules/rainmaker_modules/ap-video-library/ap-video-library.html"
				],
				"scripts": [
					"modules/rainmaker_modules/ap-video-library/ap-video-library.js"
				],
				"styles": [
					"modules/rainmaker_modules/ap-video-library/ap-video-library.css"
				]
			}
		},
		"ap-specific-product-characteristics": {
			"id": "ap-specific-product-characteristics",
			"files": {
				"templates": [],
				"scripts": [
					"modules/rainmaker_modules/ap-specific-product-characteristics/ap-specific-product-characteristics.js"
				],
				"styles": []
			}
		},
		"ap-follow-up-mail": {
			"id": "ap-follow-up-mail",
			"files": {
				"templates": [
					"modules/rainmaker_modules/ap-follow-up-mail/ap-follow-up-mail.html"
				],
				"scripts": [
					"modules/rainmaker_modules/ap-follow-up-mail/ap-follow-up-mail.js"
				],
				"styles": [
					"modules/rainmaker_modules/ap-follow-up-mail/ap-follow-up-mail.css"
				]
			}
		},
		"ap-frequently-asked-questions": {
			"id": "ap-frequently-asked-questions",
			"files": {
				"templates": [
					"modules/rainmaker_modules/ap-frequently-asked-questions/ap-frequently-asked-questions.html"
				],
				"scripts": [
					"modules/rainmaker_modules/ap-frequently-asked-questions/ap-frequently-asked-questions.js"
				],
				"styles": [
					"modules/rainmaker_modules/ap-frequently-asked-questions/ap-frequently-asked-questions.css"
				]
			}
		},
		"ap-notepad": {
			"id": "ap-notepad",
			"files": {
				"templates": [
					"modules/rainmaker_modules/ap-notepad/ap-notepad.html"
				],
				"scripts": [
					"modules/rainmaker_modules/ap-notepad/ap-notepad.js"
				],
				"styles": [
					"modules/rainmaker_modules/ap-notepad/ap-notepad.css"
				]
			}
		},
		"ap-slide-indicator": {
			"id": "ap-slide-indicator",
			"files": {
				"templates": [
					"modules/rainmaker_modules/ap-slide-indicator/ap-slide-indicator.html"
				],
				"scripts": [
					"modules/rainmaker_modules/ap-slide-indicator/ap-slide-indicator.js"
				],
				"styles": [
					"modules/rainmaker_modules/ap-slide-indicator/ap-slide-indicator.css"
				]
			}
		},
		"bhc-gpc-number": {
			"id": "bhc-gpc-number",
			"files": {
				"templates": [
					"modules/rainmaker_modules/bhc-gpc-number/bhc-gpc-number.html"
				],
				"scripts": [
					"modules/rainmaker_modules/bhc-gpc-number/bhc-gpc-number.js"
				],
				"styles": [
					"modules/rainmaker_modules/bhc-gpc-number/bhc-gpc-number.css"
				]
			}
		},
		"ah-cleanup": {
			"name": "Anthill Cleanup Module",
			"description": "Clean up slides not in use",
			"type": "global",
			"files": {
				"scripts": [
					"modules/rainmaker_modules/ah-cleanup/ah-cleanup.js"
				]
			},
			"version": "0.9.0"
		},
		"ah-auto-references": {
			"name": "Anthill AUTO REFERENCES",
			"type": "global",
			"files": {
				"scripts": [
					"modules/rainmaker_modules/ah-auto-references/ah-auto-references.js"
				],
				"styles": [
					"modules/rainmaker_modules/ah-auto-references/ah-auto-references.css"
				]
			},
			"version": "0.9.0"
		},
		"ah-reference-library": {
			"id": "ah-reference-library",
			"files": {
				"templates": [
					"modules/rainmaker_modules/ah-reference-library/ah-reference-library.html"
				],
				"scripts": [
					"modules/rainmaker_modules/ah-reference-library/ah-reference-library.js"
				],
				"styles": [
					"modules/rainmaker_modules/ah-reference-library/ah-reference-library.css"
				]
			}
		},
		"ah-media-library": {
			"id": "ah-media-library",
			"files": {
				"templates": [
					"modules/rainmaker_modules/ah-media-library/ah-media-library.html"
				],
				"scripts": [
					"modules/rainmaker_modules/ah-media-library/ah-media-library.js"
				],
				"styles": [
					"modules/rainmaker_modules/ah-media-library/ah-media-library.css"
				]
			}
		},
		"ah-notes": {
			"id": "ah-notes",
			"files": {
				"scripts": [
					"modules/rainmaker_modules/ah-notes/ah-notes.coffee"
				]
			}
		},
		"ah-media-repository": {
			"id": "ah-media-repository",
			"files": {
				"templates": [],
				"scripts": [
					"modules/rainmaker_modules/ah-media-repository/ah-media-repository.js"
				],
				"styles": []
			}
		},
		"ag-cleanup": {
			"id": "ag-cleanup",
			"files": {
				"templates": [],
				"scripts": [
					"modules/rainmaker_modules/ag-cleanup/ag-cleanup.js"
				],
				"styles": []
			}
		},
		"ah-utils": {
			"id": "ah-utils",
			"files": {
				"templates": [],
				"scripts": [
					"modules/rainmaker_modules/ah-utils/ah-utils.coffee"
				],
				"styles": []
			}
		},
		"ah-correct-events": {
			"id": "ah-validator",
			"files": {
				"scripts": [
					"modules/rainmaker_modules/ah-correct-events/ah-correct-events.coffee"
				]
			}
		},
		"ah-history": {
			"id": "ah-history",
			"files": {
				"scripts": [
					"modules/rainmaker_modules/ah-history/ah-history.coffee"
				]
			}
		},
		"ah-develop-sitemap": {
			"id": "ah-develop-sitemapr",
			"files": {
				"templates": [],
				"scripts": [
					"modules/rainmaker_modules/ah-develop-sitemap/ah-develop-sitemap.coffee"
				],
				"styles": [
					"modules/rainmaker_modules/ah-develop-sitemap/ah-develop-sitemap.styl"
				]
			}
		},
		"ah-fix-slide-render": {
			"id": "ah-fix-slide-render",
			"files": {
				"scripts": [
					"modules/rainmaker_modules/ah-fix-slide-render/ah-fix-slide-render.coffee"
				]
			}
		},
		"ah-bottom-logo": {
			"id": "ah-bottom-logo",
			"files": {
				"scripts": [
					"modules/rainmaker_modules/ah-bottom-logo/ah-bottom-logo.coffee"
				]
			}
		},
		"ah-video": {
			"id": "ah-video",
			"files": {
				"scripts": [
					"modules/rainmaker_modules/ah-video/ah-video.coffee"
				],
				"styles": [
					"modules/rainmaker_modules/ah-video/ah-video.styl"
				]
			}
		},
		"ah-inline-indicators": {
			"id": "ah-inline-indicators",
			"files": {
				"scripts": [
					"modules/rainmaker_modules/ah-inline-indicators/ah-inline-indicators.coffee"
				],
				"styles": [
					"modules/rainmaker_modules/ah-inline-indicators/ah-inline-indicators.styl"
				]
			}
		},
		"ah-inline-menu": {
			"id": "ah-inline-indicators",
			"files": {
				"scripts": [
					"modules/rainmaker_modules/ah-inline-menu/ah-inline-menu.coffee"
				],
				"styles": [
					"modules/rainmaker_modules/ah-inline-menu/ah-inline-menu.styl"
				]
			}
		},
		"ah-inline-slideshow": {
			"id": "ah-inline-slideshow",
			"files": {
				"scripts": [
					"modules/rainmaker_modules/ah-inline-slideshow/ah-inline-slideshow.coffee"
				],
				"styles": [
					"modules/rainmaker_modules/ah-inline-slideshow/ah-inline-slideshow.styl"
				]
			}
		},
		"ah-binding-handler": {
			"id": "ah-binding-handler",
			"files": {
				"scripts": [
					"modules/rainmaker_modules/ah-binding-handler/ah-binding-handler.js"
				],
				"styles": []
			}
		},
		"ah-fix-slide-animation": {
			"id": "ah-fix-slide-animation",
			"files": {
				"scripts": [
					"modules/rainmaker_modules/ah-fix-slide-animation/ah-fix-slide-animation.coffee"
				],
				"styles": [
					"modules/rainmaker_modules/ah-fix-slide-animation/ah-fix-slide-animation.styl"
				]
			}
		},
		"ah-listener": {
			"id": "ah-listener",
			"files": {
				"scripts": [
					"modules/rainmaker_modules/ah-listener/ah-listener.coffee"
				]
			}
		},
		"ah-refs-notes-popup": {
			"id": "ah-refs-notes-popup",
			"files": {
				"scripts": [
					"modules/rainmaker_modules/ah-refs-notes-popup/ah-refs-notes-popup.coffee"
				],
				"templates": [
					"modules/rainmaker_modules/ah-refs-notes-popup/ah-refs-notes-popup.pug"
				],
				"styles": [
					"modules/rainmaker_modules/ah-refs-notes-popup/ah-refs-notes-popup.styl"
				]
			}
		},
		"ah-slide-analytics": {
			"id": "ah-slide-analytics",
			"files": {
				"scripts": [
					"modules/rainmaker_modules/ah-slide-analytics/ah-slide-analytics.coffee"
				]
			}
		}
	},
	"structures": {
		"home": {
			"name": "Home",
			"id": "home",
			"shareable": {},
			"type": "slideshow",
			"content": [
				"HomePageSlide"
			]
		},
		"contraindications": {
			"name": "contraindications",
			"id": "ContraindicationsSlide",
			"shareable": {},
			"type": "slideshow",
			"content": [
				"ContraindicationsSlide"
			]
		},
		"most_frequently_observed": {
			"name": "MostFrequentlyObservedSlide",
			"id": "most_frequently_observed",
			"shareable": {},
			"type": "slideshow",
			"content": [
				"MostFrequentlyObservedSlide"
			]
		},
		"quiz_1": {
			"name": "Question 1",
			"id": "quiz_1",
			"shareable": {},
			"type": "slideshow",
			"content": [
				"RI_Quiz_1"
			]
		},
		"quiz_2": {
			"name": "Question 2",
			"id": "quiz_2",
			"shareable": {},
			"type": "slideshow",
			"content": [
				"RI_Quiz_2"
			]
		},
		"quiz_3": {
			"name": "Question 3",
			"id": "quiz_3",
			"shareable": {},
			"type": "slideshow",
			"content": [
				"RI_Quiz_3"
			]
		},
		"quiz_4": {
			"name": "Question 4",
			"id": "quiz_4",
			"shareable": {},
			"type": "slideshow",
			"content": [
				"RI_Quiz_4"
			]
		},
		"quiz_5": {
			"name": "Question 5",
			"id": "quiz_1",
			"shareable": {},
			"type": "slideshow",
			"content": [
				"RI_Quiz_5"
			]
		},
		"quiz_6": {
			"name": "Question 6",
			"id": "quiz_6",
			"shareable": {},
			"type": "slideshow",
			"content": [
				"RI_Quiz_6"
			]
		},
		"quiz_7": {
			"name": "Question 7",
			"id": "quiz_7",
			"shareable": {},
			"type": "slideshow",
			"content": [
				"RI_Quiz_7"
			]
		},
		"quiz_8": {
			"name": "Question 8",
			"id": "quiz_8",
			"shareable": {},
			"type": "slideshow",
			"content": [
				"RI_Quiz_8"
			]
		},
		"quiz_9": {
			"name": "Question 9",
			"id": "quiz_9",
			"shareable": {},
			"type": "slideshow",
			"content": [
				"RI_Quiz_9"
			]
		},
		"quiz_10": {
			"name": "Question 10",
			"id": "quiz_10",
			"shareable": {},
			"type": "slideshow",
			"content": [
				"RI_Quiz_10"
			]
		},
		"quiz_11": {
			"name": "Question 11",
			"id": "quiz_11",
			"shareable": {},
			"type": "slideshow",
			"content": [
				"RI_Quiz_11"
			]
		},
		"quiz_12": {
			"name": "Question 12",
			"id": "quiz_12",
			"shareable": {},
			"type": "slideshow",
			"content": [
				"RI_Quiz_12"
			]
		},
		"quiz_13": {
			"name": "Question 13",
			"id": "quiz_13",
			"shareable": {},
			"type": "slideshow",
			"content": [
				"RI_Quiz_13"
			]
		},
		"quiz_14": {
			"name": "Question 14",
			"id": "quiz_14",
			"shareable": {},
			"type": "slideshow",
			"content": [
				"RI_Quiz_14"
			]
		},
		"quiz_15": {
			"name": "Question 15",
			"id": "quiz_15",
			"shareable": {},
			"type": "slideshow",
			"content": [
				"RI_Quiz_15"
			]
		},
		"quiz_16": {
			"name": "Question 16",
			"id": "quiz_16",
			"shareable": {},
			"type": "slideshow",
			"content": [
				"RI_Quiz_16"
			]
		},
		"quiz_17": {
			"name": "Question 17",
			"id": "quiz_17",
			"shareable": {},
			"type": "slideshow",
			"content": [
				"RI_Quiz_17"
			]
		},
		"quiz_18": {
			"name": "Question 18",
			"id": "quiz_18",
			"shareable": {},
			"type": "slideshow",
			"content": [
				"RI_Quiz_18"
			]
		},
		"quiz_19": {
			"name": "Question 19",
			"id": "quiz_19",
			"shareable": {},
			"type": "slideshow",
			"content": [
				"RI_Quiz_19"
			]
		},
		"quiz_20": {
			"name": "Question 20",
			"id": "quiz_20",
			"shareable": {},
			"type": "slideshow",
			"content": [
				"RI_Quiz_20"
			]
		},
		"quiz_21": {
			"name": "Question 21",
			"id": "quiz_21",
			"shareable": {},
			"type": "slideshow",
			"content": [
				"RI_Quiz_21"
			]
		},
		"quiz_22": {
			"name": "Question 22",
			"id": "quiz_22",
			"shareable": {},
			"type": "slideshow",
			"content": [
				"RI_Quiz_22"
			]
		},
		"quiz_23": {
			"name": "Question 23",
			"id": "quiz_23",
			"shareable": {},
			"type": "slideshow",
			"content": [
				"RI_Quiz_23"
			]
		},
		"quiz_24": {
			"name": "Question 24",
			"id": "quiz_24",
			"shareable": {},
			"type": "slideshow",
			"content": [
				"RI_Quiz_24"
			]
		},
		"quiz_25": {
			"name": "Question 25",
			"id": "quiz_25",
			"shareable": {},
			"type": "slideshow",
			"content": [
				"RI_Quiz_25"
			]
		},
		"recent_insights": {
			"name": "Recent Insights",
			"id": "recent_insights",
			"shareable": {},
			"type": "slideshow",
			"content": [
				"RecentInsights10Slide",
				"RecentInsights11Slide",
				"RecentInsights12Slide",
				"RecentInsights13Slide",
				"RecentInsights14Slide",
				"RecentInsights15Slide",
				"RecentInsights16Slide",
				"RecentInsights17Slide",
				"RecentInsights18Slide",
				"RecentInsights19Slide",
				"RecentInsights110Slide",
				"RecentInsights111Slide",
				"RecentInsights112Slide"
			]
		},
		"eylea": {
			"name": "Eylea",
			"id": "eylea",
			"shareable": {},
			"type": "slideshow",
			"content": [
				"Eylea20Slide"
			]
		},
		"start_strong_30": {
			"name": "Start Strong 30",
			"id": "start_strong_30",
			"shareable": {},
			"type": "slideshow",
			"content": [
				"StartStrong30Slide"
			]
		},
		"start_strong_31": {
			"name": "Start Strong 31",
			"id": "start_strong_31",
			"shareable": {},
			"type": "slideshow",
			"content": [
				"StartStrong31Slide"
			]
		},
		"start_strong_32": {
			"name": "Start Strong 32",
			"id": "start_strong_32",
			"shareable": {},
			"type": "slideshow",
			"content": [
				"StartStrong32Slide"
			]
		},
		"start_strong_35": {
			"name": "Start Strong 35",
			"id": "start_strong_35",
			"shareable": {},
			"type": "slideshow",
			"content": [
				"StartStrong35Slide"
			]
		},
		"stay_strong_40": {
			"name": "Stay Strong 40",
			"id": "stay_strong_40",
			"shareable": {},
			"type": "slideshow",
			"content": [
				"StayStrong40Slide"
				
			]
		},
		"stay_strong_41": {
			"name": "Stay Strong 41",
			"id": "stay_strong_41",
			"shareable": {},
			"type": "slideshow",
			"content": [
				"StayStrong41Slide"
				
			]
		},
		"multi_target_approach": {
			"name": "Multi Target Approach",
			"id": "multi_target_approach",
			"shareable": {},
			"type": "slideshow",
			"content": [
				"MultiTargetApproachSlide"
				
			]
		},
		"unique_moa": {
			"name": "Unique MoA",
			"id": "unique_moa",
			"shareable": {},
			"type": "slideshow",
			"content": [
				"UniqueMoA50Slide"
			]
		},
		"discussion": {
			"name": "Discussion",
			"id": "discussion",
			"shareable": {},
			"type": "slideshow",
			"content": [
				"Discussion60Slide"
			]
		},
		"start_strong_30b_inline": {
			"name": "Start Strong 3.0 B inline",
			"id": "start_strong_30b_inline",
			"shareable": {},
			"type": "slideshow",
			"content": [
				"StartStrong30B1PopupSlide",
				"StartStrong30B2PopupSlide",
				"StartStrong30B3PopupSlide",
				"StartStrong30B4PopupSlide",
				"StartStrong30B5PopupSlide"
			]
		},
		"start_strong_30c_inline": {
			"name": "Start Strong 3.0 C inline",
			"id": "start_strong_30c_inline",
			"shareable": {},
			"type": "slideshow",
			"content": [
				"StartStrong30C1PopupSlide",
				"StartStrong30C3PopupSlide"
			]
		},
		"start_strong_35a_inline": {
			"name": "Start Strong 3.5 A inline",
			"id": "start_strong_35a_inline",
			"shareable": {},
			"type": "slideshow",
			"content": [
				"StartStrong35A2PopupSlide",
				"StartStrong35A3PopupSlide",
				"StartStrong35A4PopupSlide"
			]
		},
		"start_strong_35b_inline": {
			"name": "Start Strong 3.5 B inline",
			"id": "start_strong_35b_inline",
			"shareable": {},
			"type": "slideshow",
			"content": [
				"StartStrong35B1PopupSlide"
			]
		},
		"stay_strong_40a_inline": {
			"name": "Stay Strong 4.0 A inline",
			"id": "stay_strong_40a_inline",
			"shareable": {},
			"type": "slideshow",
			"content": [
				"StayStrong40A1PopupSlide",
				"StayStrong40A2PopupSlide"
			]
		},
		"stay_strong_40b_inline": {
			"name": "Stay Strong 4.0 B inline",
			"id": "stay_strong_40b_inline",
			"shareable": {},
			"type": "slideshow",
			"content": [
				"StayStrong40B1PopupSlide"
			]
		},
		"stay_strong_40c_inline": {
			"name": "Stay Strong 4.0 C inline",
			"id": "stay_strong_40c_inline",
			"shareable": {},
			"type": "slideshow",
			"content": [
				"StayStrong40C1PopupSlide",
				"StayStrong40C2PopupSlide"
			]
		},
		"stay_strong_41a_inline": {
			"name": "Stay Strong 4.1 A inline",
			"id": "stay_strong_41a_inline",
			"shareable": {},
			"type": "slideshow",
			"content": [
				"StayStrong41A1PopupSlide",
				"StayStrong41A3PopupSlide",
				"StayStrong41A4PopupSlide"
			]
		},
		"unique_moa_50a_inline": {
			"name": "Unique MoA 5.0 A inline",
			"id": "unique_moa_50a_inline",
			"shareable": {},
			"indicators": true,
			"type": "slideshow",
			"content": [
				"UniqueMoA50A1PopupSlide",
				"UniqueMoA50A2PopupSlide",
				"UniqueMoA50A3PopupSlide",
				"UniqueMoA50A4PopupSlide",
				"UniqueMoA50A5PopupSlide",
				"UniqueMoA50A6PopupSlide"
			]
		},
		"unique_moa_50b_inline": {
			"name": "Unique MoA 5.0 B inline",
			"id": "unique_moa_50b_inline",
			"shareable": {},
			"type": "slideshow",
			"content": [
				"UniqueMoA50B1PopupSlide",
				"UniqueMoA50B2PopupSlide",
				"UniqueMoA50B3PopupSlide",
				"UniqueMoA50B4PopupSlide",
				"UniqueMoA50B5PopupSlide"
			]
		}
	},
	"storyboards": {
		"start_collection": {
			"name": "Start presentation",
			"id": "start_collection",
			"type": "collection",
			"content": [
				"home",
				"eylea",
				"start_strong_30",
				"start_strong_31",
				"start_strong_32",
				"start_strong_35",
				"stay_strong_40",
				"stay_strong_41",
				"multi_target_approach",
				"contraindications",
				"most_frequently_observed",
				"discussion",
				"quiz_1",
				"quiz_2",
				"quiz_3",
				"quiz_4",
				"quiz_5",
				"quiz_6",
				"quiz_7",
				"quiz_8",
				"quiz_9",
				"quiz_10",
				"quiz_11",
				"quiz_12",
				"quiz_13",
				"quiz_14",
				"quiz_15",
				"quiz_16",
				"quiz_17",
				"quiz_18",
				"quiz_19",
				"quiz_20",
				"quiz_21",
				"quiz_22",
				"quiz_23",
				"quiz_24",
				"quiz_25"
			]
		}
	},
	"storyboard": [
		"start_collection"
	]
}