{
	"headline": "<mark>EYLEA<sup>&reg;</sup></mark>: RAPID AND ROBUST MEAN REDUCTIONS IN CRT VS LASER<sup data-reference-id='vividEast'></sup>",
	"crt": "CRT",
	"lead_text": "IN VIVID EAST…",
	"graph": {
		"caption": "Mean change in CRT though Week 52<sup data-reference-id='vividEast'></sup>",
		"v_caption": "&micro;m",
		"v_scale": [
			"–250",
			"–200",
			"–150",
			"–100",
			"–50",
			"0"
		],
		"h_caption": "Week",
		"h_scale": [
			"0",
			"4",
			"8",
			"12",
			"16",
			"20",
			"24",
			"28",
			"32",
			"36",
			"40",
			"44",
			"48",
			"52"
		],
		"lines": [
			{
				"value": "–109.3"
			},
			{
				"value": "–234.7"
			}
		],
		"graph_blocks": [
			"",
			""
		],
		"point_description": {
			"efficacy_value": "",
			"additional": ""
		},
		"legend": [
			"<strong>EYLEA<sup>&reg;</sup> 2 mg</strong> administered every month (4 weeks) for the first 5 months, followed by once every 2 months (8 weeks); <strong>n=127</strong>.<sup data-reference-id='davidson'></sup>",
			"<strong>Laser</strong> photocoagulation administered as needed, no more often than every 12 weeks; <strong>n=117</strong>.<sup data-reference-id='davidson'></sup>"
		]
	}
}