{
	"headline": "<mark>EYLEA<sup>&reg;</sup></mark>: FLEXIBLE DOSING AVAILABLE AFTER YEAR 1,<br> SUCH AS TREAT-AND-EXTEND<sup data-reference-id='eylea'></sup>",
	"product_text": {
		"lead_paragraph": "AFTER THE FIRST 12 MONTHS OF TREATMENT WITH EYLEA<sup>&reg;</sup>, AND BASED ON VISUAL<br>AND/OR ANATOMIC OUTCOMES, THE TREATMENT INTERVAL MAY BE EXTENDED,<br>SUCH AS WITH A TREAT-AND-EXTEND DOSING REGIMEN, WHERE THE TREATMENT<br>INTERVALS ARE GRADUALLY INCREASED TO MAINTAIN STABLE VISUAL<br>AND/OR ANATOMIC OUTCOMES<sup data-reference-id='eylea'></sup>",
		"product_name": "<mark>EXAMPLE 1</mark><br> Dosing interval<br> extended<sup data-notes='schedule_monitoring'></sup>",
		"caption": "BEYOND 52 WEEKS",
		"top_description": [
			"If visual and anatomic response<br>maintained, proactively extend<br> by 2-week increments",
			"Visual<br> and anatomic<br> response maintained"
		],
		"products": [
			"EXTEND TO<br> <strong>10 WEEKS</strong>",
			"EXTEND TO<br> <strong>12 WEEKS</strong>",
			"Further treatment<br>is based on visual<br>and/or anatomic<br>outcomes<sup data-notes='schedule_monitoring'></sup>"
		],
		"bottom_description": [
			"INJECT<br> <mark>AND EXTEND</mark>",
			"INJECT"
		]
	}
}