{
	"headline": "BASELINE CHARACTERISTICS<sup data-reference-id='korobelnik'></sup>",
	"table": {
		"thead": [
			{
				"th01": "",
				"th02_class-vivid_colspanned_3": "",
				"th05_class-vista_colspanned_3": ""
			},
			{
				"th01": "",
				"th02_class-blue": "EYLEA<sup>&reg;</sup><br> 2q8",
				"th03_class-white": "Aflibercept<sup>&reg;</sup> 2q4",
				"th04_class-gray": "Laser",
				"th05_class-blue": "EYLEA<sup>&reg;</sup><br> 2q8",
				"th06_class-white": "Aflibercept<sup>&reg;</sup> 2q4",
				"th07_class-gray": "Laser"
			}
		],
		"tbody": [

			{
				"th01": "n",
				"td02": "135",
				"td03": "136",
				"td04": "132",
				"td05": "151",
				"td06": "154",
				"td07": "154"
			},
			{
				"th01": "Age, years (SD)",
				"td02": "64.2 (7.8)",
				"td03": "62.6 (8.6)",
				"td04": "63.9 (8.6)",
				"td05": "63.1 (9.4)",
				"td06": "62.0 (11.2)",
				"td07": "61.7 (8.7)"
			},
			{
				"th01": "Female, n (%)",
				"td02": "47 (34.8)",
				"td03": "53 (39.0)",
				"td04": "54 (40.9)",
				"td05": "73 (48.3)",
				"td06": "67 (43.5)",
				"td07": "69 (44.8)"
			},
			{
				"th01": "Race, n (%)",
				"td02": "",
				"td03": "",
				"td04": "",
				"td05": "",
				"td06": "",
				"td07": ""
			},
			{
				"th01": "White",
				"td02": "106 (78.5)",
				"td03": "109 (80.1)",
				"td04": "106 (80.3)",
				"td05": "125 (82.8)",
				"td06": "128 (83.1)",
				"td07": "131 (85.1)"
			},
			{
				"th01": "Black",
				"td02": "1 (0.7)",
				"td03": "0",
				"td04": "1 (0.8)",
				"td05": "19 (12.6)",
				"td06": "16 (10.4)",
				"td07": "16 (10.4)"
			},
			{
				"th01": "Asian",
				"td02": "27 (20.0)",
				"td03": "27 (19.9)",
				"td04": "25 (18.9)",
				"td05": "2 (1.3)",
				"td06": "5 (3.2)",
				"td07": "3 (1.9)"
			},
			{
				"th01": "Other",
				"td02": "1 (0.7)",
				"td03": "0",
				"td04": "0",
				"td05": "5 (3.3)",
				"td06": "5 (3.2)",
				"td07": "4 (2.6)"
			},
			{
				"th01": "Mean HbA<sub>1c</sub>, % (SD)",
				"td02": "7.7 (1.4)",
				"td03": "7.8 (1.5)",
				"td04": "7.7 (1.3)",
				"td05": "7.9 (1.6)",
				"td06": "7.9 (1.6)",
				"td07": "7.6 (1.7)"
			},
			{
				"th01": "Patients with HbA<sub>1c</sub> &gt;8%, n (%)",
				"td02": "44 (32.6)",
				"td03": "55 (40.4)",
				"td04": "42 (31.8)",
				"td05": "57 (37.7)",
				"td06": "57 (37.0)",
				"td07": "45 (29.2)"
			},
			{
				"th01": "Duration of diabetes, years (SD)",
				"td02": "14.1 (8.9)",
				"td03": "14.3 (9.2)",
				"td04": "14.5 (9.8)",
				"td05": "17.6 (11.5)",
				"td06": "16.5 (9.9)",
				"td07": "17.2 (9.5)"
			}
		]
	}
}