{
	"headline": "AN ESTABLISHED SAFETY PROFILE<br> FROM EXTENSIVE CLINICAL EXPERIENCE",
	"lead_paragraph": "MOST FREQUENTLY OBSERVED ADVERSE REACTIONS<sup data-reference-id='eylea'></sup> <br><small>(in &geq;5% of patients treated with EYLEA<sup>&reg;</sup>)</small>",
	"table": {
		"thead": [
			{
				"th01": "ADVERSE EVENT",
				"th02": "FREQUENCY"
			}
		],
		"tbody": [
			{
				"th01": "CONJUNCTIVAL HAEMORRHAGE",
				"td02": "25%"
			},
			{
				"th01": "REDUCED VISUAL ACUITY",
				"td02": "11%"
			},
			{
				"th01": "EYE PAIN",
				"td02": "10%"
			},
			{
				"th01": "CATARACT",
				"td02": "8%"
			},
			{
				"th01": "INCREASED INTRAOCULAR PRESSURE",
				"td05": "8%"
			},
			{
				"th01": "VITREOUS DETACHMENT",
				"td02": "7%"
			},
			{
				"th01": "VITREOUS FLOATERS",
				"td02": "7%"
			}
		]
	},
	"additional_info": [
		"SINCE LAUNCH, <strong>10 MILLION VIALS</strong> ADMINISTERED WORLDWIDE<sup data-reference-id='data'></sup>",
		"<strong>3102 PATIENTS</strong> FROM <strong>EIGHT PHASE III</strong> STUDIES ARE INCLUDED IN THE EYLEA<sup>&reg;</sup> SAFETY POPULATION<sup data-reference-id='eylea'></sup>"
	]
}