{
	"headline": "TREATMENT EXTENSION WITH EYLEA<sup>&reg;</sup><br> CAN MAINTAIN VISION AFTER THE INITIAL<br>MONTHLY DOSING PHASE<sup data-reference-id='heier'></sup>",
	"sub_headline": "TO MAINTAIN GAINS WITH EXTENDED DOSING<sup data-reference-id='heier'></sup>",
	"lead_paragraph": "Treatment extension with <strong>EYLEA<sup>&reg;</sup> 2 mg</strong> can maintain vision after the initial monthly dosing phase<sup data-reference-id='heier'></sup>",
	"graph": {
		"caption": "Mean change in BCVA through Week 148<sup data-reference-id='heier'></sup>",
		"v_caption": "Mean change in BCVA<br> ETDRS letters",
		"v_scale": [
			"0",
			"2",
			"4",
			"6",
			"8",
			"10",
			"12",
			"14"
		],
		"h_caption": "Week",
		"h_scale": [
			"0",
			"4",
			"12",
			"20",
			"52",
			"100",
			"148"
		],
		"lines": [
			{
				"value": "+11.7",
				"additional": "EYLEA<sup>&reg;</sup> 2q8"
			},
			{
				"value": "+1.6"
			}
		],
		"graph_blocks": [
			"Initial monthly <br>dosing",
			"Extension"
		],
		"point_description": {
			"efficacy_value": "+9.9",
			"additional": "FIFTH DOSE EFFICACY"
		},
		"graph_additional_legends": {
			"first": {
				"caption_left": "<b>33<sub>%</sub></b>",
				"caption_right": "Patients<br> achieving<br><b>&ge;3-line gains</b><sup data-reference-id='korobelnik'></sup>",
				"list": [
					"<b>Week 52</b>"
				]
			},
			"second": {
				"caption_left": "<b>31<sub>%</sub></b>",
				"caption_right": "Patients<br> achieving<br><b>&ge;3-line gains</b><sup data-reference-id='korobelnik,brown'></sup>",
				"list": [
					"<b>Week 100</b>"
				]
			},
			"third": {
				"caption_left": "<b>42<sub>%</sub></b>",
				"caption_right": "Patients<br> achieving<br><b>&ge;3-line gains</b><sup data-reference-id='heier,brown'></sup>",
				"list": [
					"<b>Week 148</b>"
				]
			}
		},
		"legend": [
			"<strong>EYLEA<sup>&reg;</sup> 2 mg</strong> administered every month (4 weeks) for the first 5 months, followed by once every 2 months (8 weeks); n=135.<sup data-reference-id='heier'></sup>",
			"<strong>Laser</strong> photocoagulation administered as needed, no more often than every 12 weeks; n=132.<sup data-reference-id='heier'></sup>"
		]
	},
	"bottom_btns" : [
		"Additional endpoints",
		"VISTA DME",
		"Protocol T"
	]
}