{
	"headline": "Safety",
	"list": [
		"The proportion of patients with elevated IOP was 30.8% in the DEX 0.7 mg group and 30.0% in the 0.35 mg group vs 3.4% in the sham group<sup data-reference-id='boyer'></sup>",
		"Approximately one-third of patients in each DEX treatment group had a clinically significant increase in IOP requiring treatment during the study<sup data-reference-id='boyer'></sup>",
		"The most common ocular AE in the study eye was cataract (37.8% in the DEX 0.7 mg group, 32.4% in the 0.35 mg group and 9.7% in the sham group)<sup data-reference-id='boyer'></sup>",
		"Among patients with a phakic study eye at baseline, the overall incidence of cataract-related AEs was 67.9%, 64.1%, and 20.4% in the DEX 0.7 mg, 0.35 mg, and sham groups, respectively, and the rate of cataract surgery during the study was 59.2%, 52.3%, and 7.2%, respectively<sup data-reference-id='boyer'></sup>"
	]
}