{
	"headline": "DEX HAS SHOWN MODEST GAINS IN BCVA ACROSS CLINICAL TRIALS<sup data-reference-id='boyer-callanan'></sup>",
	"lead_paragraph": "IN A POOLED ANALYSIS OF TWO PIVOTAL 3-YEAR PHASE 3 CLINICAL TRIALS<br> IN PATIENTS WITH DME, MEAN AVERAGE CHANGE IN BCVA WAS:<sup data-reference-id='boyer'></sup>",
	"items": [
		{
			"header": "DEX 0.7 mg",
			"count": "3.5",
			"footer": {
				"letter": "LETTERS",
				"value": "(n=351)<sup data-reference-id='boyer'></sup>"
			}
		},
		{
				"equal": "<i>P</i>=0.023"
		},
		{
			"header": "SHAM",
			"count": "2.0",
			"footer": {
				"letter": "LETTERS",
				"value": "(n=350)<sup data-reference-id='boyer'></sup>"
			}
		}
	]
}