{
	"headline": "IN PATIENTS WITH VISUAL ACUITY OF &lt;20/40 (&lt;69 ETDRS letters) <br>AT BASELINE IN PROTOCOL T…",
	"lead_paragraph": "GREATER IMPROVEMENTS IN BCVA WITH EYLEA<sup>&reg;</sup> VS RANIBIZUMAB AND BEVACIZUMAB <br>(area under curve; <i>post-hoc</i> analysis)<sup data-reference-id='jampol'></sup><sup>,</sup><sup data-notes='dose_ranibizumab'></sup>",
	"graph": {
		"caption": "Mean change in BCVA though Year 2<sup data-reference-id='wells,jampol'></sup>",
		"v_caption": "Mean change in BCVA <br>ETDRS letters",
		"v_scale": [
			"0",
			"5",
			"10",
			"15",
			"20"
		],
		"h_caption": "Week",
		"h_scale": [
			"0",
			"4",
			"8",
			"12",
			"16",
			"20",
			"24",
			"28",
			"32",
			"36",
			"40",
			"44",
			"48",
			"52",
			"68",
			"84",
			"104"
		],
		"lines": [
			{
				"name": "+18.1<sup data-notes='bevacizumab_02 ranibizumab_18'></sup>"
			},
			{
				"name": "+16.1<sup data-notes='bevacizumab_18'></sup>"
			},
			{
				"name": "+13.3"
			}
		],
		"graph_additional_legend": {
			"caption": "<b>Mean change in BCVA averaged</b> <br><span>through Year 2 (AUC)<sup data-reference-id='jampol'></sup></span>",
			"list": [
				"<b>+17.1<sup data-notes='bevacizumab_001 ranibizumab_009'></sup></b> EYLEA<sup>&reg;</sup>",
				"<b>+13.6</b> Ranibizumab",
				"<b>+12.1</b> Bevacizumab"
			]
		},
		"legend": [
			"<strong>EYLEA<sup>&reg;</sup> 2 mg; n=98.</strong><sup data-reference-id='wells'></sup>",
			"Ranibizumab 0.3 mg; <strong>n=94.</strong><sup data-reference-id='wells'></sup>",
			"Bevacizumab 1.25 mg; <strong>n=92.</strong><sup data-reference-id='wells'></sup>"
		]
	},
	"footnote": "Treatments administered every month (4 weeks) unless vision &ge;20/20 with &lt;250 μm on Zeiss Stratus equivalent and no improvement or worsening in response <br>to the previous 2 injections, for the first 20 weeks; thereafter injection was withheld if stable (see study design page for definitions); <strong>Protocol T n=224.</strong><sup data-reference-id='diabetic'></sup>"
}