{
	"headline": "EYLEA<sup>&reg;</sup> EARLY VISION GAINS<br> IN PATIENTS WITH DME",
	"lead_text": "FOR EARLY VISION GAINS IN PATIENTS WITH DME<sup data-reference-id='korobelnik,vivid,ziemssen'></sup>",
	"value": "<strong>80</strong>",
	"valuePercent": "%",
	"figcaption": "OF PATIENTS IN VIVID DME AND VISTA DME TREATED WITH <mark>EYLEA<sup>&reg;</sup></mark> ACHIEVED<br><mark>A CLINICALLY MEANINGFUL<br>VISION GAIN</mark><br><b>(AT LEAST ONE LINE IMPROVEMENT) AFTER</b>",
	"description": "<mark>5 INITIAL MONTHLY DOSES<sup data-reference-id='ziemssen'></sup><sup>,</sup><sup data-notes='data_dme'></sup></mark>",
	"button": "Patient value of gains"
}