{
	"headline": "WHAT DO LINES OF VISION MEAN TO YOUR PATIENT?",
	"lead_paragraph": "BINOCULAR VISUAL ACUITY<sup data-reference-id='davidson,globe'></sup><sup>,</sup><sup data-notes='correlation_lines'></sup>",
	"content": {
		"left_side": [
			{
			"line_count" : "1",
			"line_txt" : [
				"LINE",
				"LOST"
			]
			},
			{
				"line_count" : "2",
				"line_txt" : [
					"LINES",
					"LOST"
				]
			},
			{
				"line_count" : "3",
				"line_txt" : [
					"LINES",
					"LOST"
				]
			}
		],
		"right_side": [
			{
				"list":[
					"<b>Reduced or lost ability to drive</b>",
					"Dependency on others",
					"Difficulty with reading street signs, going down stairs,<br> and watching television"
				]
			},
			{
				"list":[
					"Limited ability to work or perform role-specific functions",
					"<b>Difficulty with reading</b> books or newspapers, cooking,<br> sewing, or using hand tools"
				]
			},
			{
				"list":[
					"Difficulty distinguishing between colors"
				]
			}
		]
	},
	"bottom_side": {
		"bottom_title":"GAINING ONE LINE CAN MAKE A SUBSTANTIAL IMPACT ON PATIENTS’ LIVES"
	}
}