{
	"headline": "AFTER 5 INITIAL MONTHLY DOSES OF <mark>EYLEA<sup>&reg;</sup> 2 mg</mark>, ON AVERAGE,<br> PATIENTS HAD ACHIEVED 93% OF MEAN VISION GAINED AT YEAR 1<sup data-reference-id='korobelnik,vivid'></sup>",
	"graph": {
		"caption": "Mean change in BCVA though Week 52<sup data-reference-id='korobelnik,vivid'></sup>",
		"point_values": [
			"62<span>%</span>",
			"70<span>%</span>",
			"80<span>%</span>",
			"84<span>%</span>",
			{
				"value": "93<span>%</span>",
				"efficacy_value": "+9.9",
				"additional": "FIFTH DOSE EFFICACY"
			}
		]
	}
}