{
  "name": "Agnitio Overlay",
  "type": "universal",
  "description": "Creates an overlay to the presentation.",
  "files": {
    "styles": ["modules/ag-overview/ag-overview.css"],
    "scripts": ["modules/ag-overview/ag-overview.js"]
  },
  "version": "0.5.0"
}